<?xml version="1.0" encoding="UTF-8" standalone="no"?>
<!-- Generator: Adobe Illustrator 19.0.0, SVG Export Plug-In . SVG Version: 6.00 Build 0)  -->

<svg
   xmlns:dc="http://purl.org/dc/elements/1.1/"
   xmlns:cc="http://creativecommons.org/ns#"
   xmlns:rdf="http://www.w3.org/1999/02/22-rdf-syntax-ns#"
   xmlns:svg="http://www.w3.org/2000/svg"
   xmlns="http://www.w3.org/2000/svg"
   xmlns:sodipodi="http://sodipodi.sourceforge.net/DTD/sodipodi-0.dtd"
   xmlns:inkscape="http://www.inkscape.org/namespaces/inkscape"
   version="1.1"
   id="Capa_1"
   x="0px"
   y="0px"
   viewBox="0 0 512 512"
   style="enable-background:new 0 0 512 512;"
   xml:space="preserve"
   sodipodi:docname="brush_click.svg"
   inkscape:version="0.92.2 (5c3e80d, 2017-08-06)"><metadata
     id="metadata907"><rdf:RDF><cc:Work
         rdf:about=""><dc:format>image/svg+xml</dc:format><dc:type
           rdf:resource="http://purl.org/dc/dcmitype/StillImage" /><dc:title></dc:title></cc:Work></rdf:RDF></metadata><defs
     id="defs905" /><sodipodi:namedview
     pagecolor="#ffffff"
     bordercolor="#666666"
     borderopacity="1"
     objecttolerance="10"
     gridtolerance="10"
     guidetolerance="10"
     inkscape:pageopacity="0"
     inkscape:pageshadow="2"
     inkscape:window-width="1366"
     inkscape:window-height="745"
     id="namedview903"
     showgrid="false"
     inkscape:zoom="1.0605469"
     inkscape:cx="256"
     inkscape:cy="256"
     inkscape:window-x="-8"
     inkscape:window-y="-8"
     inkscape:window-maximized="1"
     inkscape:current-layer="Capa_1" /><g
     id="g870"><g
       id="g868"><g
         id="g866"><path
           d="M256,0C114.615,0,0,114.615,0,256s114.615,256,256,256s256-114.615,256-256C511.84,114.682,397.318,0.16,256,0z      M256,494.933C124.041,494.933,17.067,387.959,17.067,256S124.041,17.067,256,17.067S494.933,124.041,494.933,256     C494.785,387.898,387.898,494.785,256,494.933z"
           id="path862" /><path
           d="M407.666,103.896L407.666,103.896c-4.058,0.946-99.975,23.804-156.516,80.346     c-27.922,26.526-50.234,58.387-65.617,93.695c-10.285,1.686-19.779,6.562-27.142,13.938     c-11.851,12.915-19.785,28.934-22.875,46.188c-5.267,19.85-10.25,38.6-37.4,54.346c-2.808,1.658-4.413,4.783-4.123,8.031     c-0.017,0.218-0.127,0.405-0.127,0.627c-0.001,2.263,0.898,4.434,2.499,6.035c1.6,1.6,3.771,2.499,6.035,2.499h170.667     c4.713,0,8.533-3.82,8.533-8.533s-3.821-8.533-8.533-8.533h-91.094c18.022-5.88,34.464-15.799,48.069-29     c7.419-7.404,12.308-16.964,13.965-27.313c35.246-15.4,67.056-37.692,93.56-65.566c56.542-56.533,79.4-152.454,80.341-156.508     c0.67-2.871-0.19-5.884-2.274-7.97C413.55,104.091,410.538,103.229,407.666,103.896z M217.975,351.467     c-22.1,22.108-52.767,30.125-86.375,35.504c10.252-13.006,17.249-28.273,20.408-44.529c2.382-14.321,8.78-27.672,18.45-38.5     c6.205-6.226,14.643-9.71,23.433-9.675h0.133c18.532,0.097,33.53,15.097,33.625,33.629     C227.721,336.733,224.234,345.227,217.975,351.467z M243.728,318.011c-1.963-9.826-6.806-18.846-13.911-25.911     c-7.109-7.141-16.19-11.994-26.077-13.935c4.922-10.864,10.776-21.281,17.496-31.134c25.821,7.521,46.011,27.71,53.533,53.53     C264.941,307.258,254.556,313.096,243.728,318.011z M325.5,258.588c-11.282,11.306-23.313,21.84-36.009,31.531     c-3.987-10.929-9.933-21.04-17.546-29.836c29.536-40.797,67.954-74.351,112.354-98.129     C372.062,192.97,352.872,231.218,325.5,258.588z M392.628,139.442c-52.992,24.205-98.836,61.685-133.091,108.809     c-8.32-6.848-17.739-12.237-27.859-15.938c9.695-12.694,20.232-24.722,31.539-36.005c40.708-40.708,105.733-63.442,134.2-71.912     C396.155,128.641,394.535,133.773,392.628,139.442z"
           id="path864" /></g></g></g><g
     id="g872" /><g
     id="g874" /><g
     id="g876" /><g
     id="g878" /><g
     id="g880" /><g
     id="g882" /><g
     id="g884" /><g
     id="g886" /><g
     id="g888" /><g
     id="g890" /><g
     id="g892" /><g
     id="g894" /><g
     id="g896" /><g
     id="g898" /><g
     id="g900" /><path
     style="opacity:1;vector-effect:none;fill:#666666;fill-opacity:1;stroke:none;stroke-width:18.87199974;stroke-linecap:butt;stroke-linejoin:round;stroke-miterlimit:4;stroke-dasharray:none;stroke-dashoffset:0;stroke-opacity:1"
     d="M 237.12895,493.74164 C 198.88629,490.79537 158.61835,477.12302 126.91565,456.32042 62.024912,413.74059 22.354553,345.76149 18.103942,269.86077 14.277049,201.52615 38.541881,137.15116 86.370534,88.748374 123.43213,51.241896 169.82256,27.698275 222.1627,19.832454 c 15.75216,-2.367278 52.06428,-2.37686 67.40489,-0.01779 51.78987,7.964231 97.59935,30.746241 133.68573,66.48471 37.15481,36.796586 60.00652,81.516336 68.74464,134.530096 2.42766,14.72853 2.41894,54.80813 -0.0153,70.05543 -6.80086,42.59917 -23.41331,80.47821 -50.1818,114.4225 -8.76522,11.11489 -30.16401,31.79554 -41.91288,40.50628 -15.05518,11.16209 -22.83191,15.95206 -38.76049,23.874 -38.64363,19.21907 -80.74545,27.38623 -123.99859,24.05396 z m 42.13916,-86.61497 c 4.27357,-4.27356 3.35532,-10.99691 -1.87102,-13.69955 -2.42525,-1.25416 -9.09827,-1.46889 -47.42172,-1.52597 -37.56199,-0.0559 -44.07858,-0.2585 -41.29913,-1.28358 12.64135,-4.66229 30.26684,-15.88162 40.09629,-25.52291 7.55007,-7.40555 11.81108,-14.23581 14.16225,-22.7016 l 1.59115,-5.72922 11.91309,-5.91935 c 49.22792,-24.46023 89.64774,-61.09347 116.59471,-105.67193 16.1154,-26.65976 31.00907,-61.34345 41.09725,-95.70534 5.16355,-17.5878 5.31445,-20.72982 1.15284,-24.00334 -3.45305,-2.71617 -6.77349,-2.43648 -21.14665,1.78125 -50.76214,14.8959 -95.49019,36.82291 -127.02498,62.27139 -11.21699,9.05209 -33.17948,31.33661 -42.77107,43.39821 -13.90125,17.48107 -27.02858,38.47169 -35.43602,56.66226 -3.61695,7.82572 -3.72165,7.94248 -8.18975,9.1327 -20.64821,5.50037 -37.88148,26.81623 -44.76423,55.36895 -7.36449,30.55126 -14.76064,42.47399 -34.70718,55.94857 -6.636091,4.48291 -7.801583,6.1275 -7.801583,11.00856 0,2.53904 0.718732,4.15343 2.756198,6.1909 l 2.756198,2.7562 h 88.778577 88.77859 z"
     id="path911"
     inkscape:connector-curvature="0" /><path
     style="opacity:1;vector-effect:none;fill:#666666;fill-opacity:1;stroke:none;stroke-width:18.87199974;stroke-linecap:butt;stroke-linejoin:round;stroke-miterlimit:4;stroke-dasharray:none;stroke-dashoffset:0;stroke-opacity:1"
     d="m 134.33549,384.18858 c 8.43535,-11.76639 13.74566,-24.03699 18.05666,-41.72375 7.23143,-29.6685 20.73489,-46.08315 38.98428,-47.38889 16.03607,-1.14737 29.3527,8.0753 34.19802,23.68447 4.33157,13.95411 -0.007,25.97691 -13.45646,37.29031 -12.59914,10.59807 -28.66249,18.44789 -48.42886,23.66613 -8.53134,2.25225 -28.54021,6.59328 -30.39001,6.59328 -0.26651,0 0.19985,-0.9547 1.03637,-2.12155 z"
     id="path913"
     inkscape:connector-curvature="0" /><path
     style="opacity:1;vector-effect:none;fill:#666666;fill-opacity:1;stroke:none;stroke-width:18.87199974;stroke-linecap:butt;stroke-linejoin:round;stroke-miterlimit:4;stroke-dasharray:none;stroke-dashoffset:0;stroke-opacity:1"
     d="m 243.36501,314.75817 c 0,-0.97715 -1.74998,-5.27298 -3.88884,-9.5463 -6.26309,-12.51327 -16.81093,-21.66881 -29.82018,-25.88397 -2.72266,-0.88217 -4.95028,-1.79611 -4.95028,-2.03097 0,-2.09839 15.93904,-29.59454 17.15544,-29.59454 1.82871,0 12.50846,4.84147 17.88687,8.10868 14.77071,8.97274 27.59849,24.70999 33.28943,40.83983 l 1.3264,3.7594 -5.8346,3.66226 c -9.08135,5.70019 -21.89211,12.46225 -23.60979,12.46225 -0.894,0 -1.55445,-0.75486 -1.55445,-1.77664 z"
     id="path915"
     inkscape:connector-curvature="0" /><path
     style="opacity:1;vector-effect:none;fill:#666666;fill-opacity:1;stroke:none;stroke-width:18.87199974;stroke-linecap:butt;stroke-linejoin:round;stroke-miterlimit:4;stroke-dasharray:none;stroke-dashoffset:0;stroke-opacity:1"
     d="m 286.1251,281.43818 c -1.99613,-4.2695 -5.83444,-10.84305 -8.52957,-14.60789 l -4.90024,-6.84517 8.19725,-10.62018 c 10.25041,-13.28022 38.78574,-42.05399 52.52035,-52.95922 15.78773,-12.53541 47.88525,-33.6112 49.19449,-32.30197 0.62425,0.62426 -10.46714,25.28667 -15.96996,35.51025 -13.19022,24.50578 -24.92383,41.08558 -40.27278,56.90612 -10.07889,10.38856 -23.43525,22.50354 -32.69626,29.65739 l -3.91394,3.02339 z"
     id="path917"
     inkscape:connector-curvature="0" /><path
     style="opacity:1;vector-effect:none;fill:#808080;fill-opacity:1;stroke:none;stroke-width:18.87199974;stroke-linecap:butt;stroke-linejoin:round;stroke-miterlimit:4;stroke-dasharray:none;stroke-dashoffset:0;stroke-opacity:1"
     d="m 253.73702,243.41253 c -2.33371,-1.7714 -7.84973,-4.99881 -12.25783,-7.17203 -4.4081,-2.17323 -8.18124,-4.07969 -8.38475,-4.23658 -0.98098,-0.75628 15.99829,-20.25141 28.63214,-32.87463 20.66928,-20.65189 39.08434,-33.45092 69.80049,-48.51346 22.75521,-11.15867 63.58921,-26.64374 64.43132,-24.43365 0.1724,0.45246 -0.57341,3.48768 -1.65736,6.74493 l -1.9708,5.92227 -9.18611,4.54054 c -44.25047,21.87225 -84.96942,54.89366 -115.54805,93.70474 -4.18812,5.31565 -8.06503,9.63642 -8.61536,9.60171 -0.55033,-0.0347 -2.90999,-1.51244 -5.24369,-3.28384 z"
     id="path919"
     inkscape:connector-curvature="0" /><path
     style="opacity:1;vector-effect:none;fill:#808080;fill-opacity:1;stroke:none;stroke-width:18.87199974;stroke-linecap:butt;stroke-linejoin:round;stroke-miterlimit:4;stroke-dasharray:none;stroke-dashoffset:0;stroke-opacity:1"
     d="m 236.7634,493.75703 c 6.8e-4,-0.28394 -4.45375,-1.01409 -9.89874,-1.62255 -30.72802,-3.43377 -68.95422,-16.95715 -96.02331,-33.97041 C 109.36165,444.66382 86.219183,424.14986 70.523239,404.69687 43.134668,370.75246 25.714185,329.52981 19.718463,284.47587 17.970579,271.34167 18.2475,237.52811 20.216538,223.6582 27.535762,172.10157 50.348916,126.07185 86.836252,89.24073 106.7115,69.178217 126.43083,54.870752 150.95985,42.715497 172.002,32.288151 194.81972,24.867437 218.21001,20.844586 c 11.39499,-1.959802 49.56206,-2.831533 63.17841,-1.442988 43.43657,4.429502 90.05577,23.872068 124.72749,52.017674 10.30948,8.368975 26.80994,25.072377 35.46095,35.897098 23.63903,29.57874 41.5827,68.16563 48.06954,103.37098 0.59781,3.24447 1.33182,5.89902 1.63113,5.89902 0.64677,0 0.66974,0.45964 1.53153,30.64457 1.01084,35.405 -1.43515,54.00867 -10.84753,82.5046 -11.16561,33.80375 -28.56535,63.33308 -51.72191,87.77795 -32.04078,33.82335 -69.15526,56.27832 -112.78146,68.23493 -19.15829,5.25071 -34.08623,7.26555 -58.77211,7.93252 -12.05814,0.3258 -21.92333,0.36004 -21.92265,0.0761 z m 42.82796,-86.7849 c 3.16105,-3.75671 3.22201,-8.32406 0.15864,-11.88751 l -2.27432,-2.64558 -22.0056,-0.61309 c -12.1031,-0.3372 -31.95445,-0.65543 -44.11412,-0.70718 l -22.10851,-0.0941 7.72913,-3.73772 c 4.25102,-2.05575 7.72913,-4.20234 7.72913,-4.77019 0,-0.56787 0.40884,-0.77981 0.90852,-0.47099 0.49968,0.30882 1.73725,-0.26724 2.75015,-1.28014 1.0129,-1.0129 2.02264,-1.66062 2.24388,-1.4394 0.22123,0.22124 1.53962,-0.65184 2.92975,-1.94017 1.39013,-1.28833 2.70479,-2.24724 2.92147,-2.13091 0.86409,0.4639 10.18345,-7.35006 15.10119,-12.66181 4.83211,-5.21925 8.83761,-11.17088 7.51811,-11.17088 -0.30966,0 0.10874,-0.67176 0.92978,-1.4928 0.82104,-0.82104 2.23035,-4.048 3.1318,-7.17103 l 1.63901,-5.67824 11.07919,-5.56552 c 6.09356,-3.06103 11.07919,-6.0116 11.07919,-6.55681 0,-0.5452 0.35622,-0.77113 0.79159,-0.50205 1.04493,0.6458 15.23788,-7.68377 15.23788,-8.94281 0,-0.53653 0.36532,-0.74973 0.81183,-0.47378 0.44651,0.27596 3.85855,-1.59711 7.58233,-4.16238 32.77372,-22.57747 59.96765,-50.55529 79.73442,-82.03285 7.6342,-12.15709 22.48166,-41.19921 21.70505,-42.4558 -0.31207,-0.50492 -0.17351,-0.91805 0.30791,-0.91805 1.00332,0 6.12944,-11.33613 5.43855,-12.02704 -0.25042,-0.25041 0.18536,-1.09595 0.96839,-1.87898 0.78303,-0.78303 1.20045,-2.00545 0.92761,-2.71648 -0.27285,-0.71103 -0.14658,-1.29279 0.28061,-1.29279 0.99017,0 5.89044,-13.17699 5.27225,-14.17725 -0.25434,-0.41153 -0.0915,-0.89055 0.36201,-1.0645 1.1869,-0.4553 5.97034,-14.8159 5.29765,-15.90433 -0.3103,-0.50207 -0.17274,-0.91285 0.30567,-0.91285 1.08706,0 6.15249,-17.59267 5.41092,-18.79257 -0.29853,-0.48302 -0.11154,-1.14475 0.41552,-1.47048 2.21842,-1.37106 0.49392,-8.16347 -2.66366,-10.49152 -1.71834,-1.26692 -10.5217,-1.41759 -10.5217,-0.18008 0,0.48006 -0.43027,0.60692 -0.95615,0.2819 -1.1725,-0.72464 -21.67369,5.1961 -21.67369,6.25936 0,0.41881 -0.63646,0.51723 -1.41436,0.21872 -0.7779,-0.29851 -1.41437,-0.048 -1.41437,0.5567 0,0.60469 -0.36751,0.87229 -0.8167,0.59468 -1.15175,-0.71182 -15.21276,4.13965 -15.21276,5.24886 0,0.50234 -0.39633,0.66841 -0.88074,0.36903 -1.04236,-0.64422 -15.57391,5.04127 -31.43885,12.30049 -31.12993,14.24393 -62.16111,34.79253 -76.95161,50.95674 -3.26095,3.56381 -6.84652,6.99501 -7.96794,7.62488 -1.12142,0.62989 -1.71472,1.16027 -1.31845,1.17864 0.39628,0.0184 -3.42251,4.17044 -8.48619,9.22679 -16.76509,16.74084 -34.97859,43.52953 -47.70778,70.16929 l -3.45472,7.23006 -5.99738,1.9958 c -8.24074,2.74235 -14.05096,6.60548 -21.89374,14.55684 -6.85128,6.94614 -15.18351,19.52032 -14.09845,21.27599 0.33504,0.5421 0.19031,0.98565 -0.32164,0.98565 -1.1266,0 -5.06622,10.18272 -4.37335,11.30381 0.26954,0.43612 0.11991,0.93526 -0.33251,1.10921 -0.45242,0.17395 -2.37958,6.04444 -4.28258,13.04554 -5.83092,21.45177 -13.34816,34.04899 -26.02262,43.60811 -13.972743,10.53829 -14.143643,10.72624 -14.143643,15.55481 0,3.46493 0.527539,4.93093 2.52442,7.01522 l 2.524419,2.63493 h 89.333604 89.3336 z"
     id="path921"
     inkscape:connector-curvature="0" /><path
     style="opacity:1;vector-effect:none;fill:#808080;fill-opacity:1;stroke:none;stroke-width:18.87199974;stroke-linecap:butt;stroke-linejoin:round;stroke-miterlimit:4;stroke-dasharray:none;stroke-dashoffset:0;stroke-opacity:1"
     d="m 242.86759,311.96833 c -2.24466,-6.04855 -6.99522,-14.33147 -8.56517,-14.93392 -0.71422,-0.27407 -1.10727,-0.80787 -0.87343,-1.18623 1.02792,-1.6632 -13.88832,-13.79668 -15.63432,-12.71759 -0.45713,0.28252 -0.83113,0.13243 -0.83113,-0.33354 0,-1.15082 -4.64046,-3.19281 -5.72812,-2.5206 -0.47974,0.29649 -0.87225,0.0978 -0.87225,-0.44151 0,-0.53933 -1.06078,-1.24683 -2.35728,-1.57223 -1.2965,-0.3254 -2.35727,-1.10594 -2.35727,-1.73452 0,-0.9509 9.68697,-18.51324 14.16766,-25.68575 1.25822,-2.01412 5.31169,-3.52457 5.83628,-2.17477 0.14774,0.38015 3.66309,2.4173 7.8119,4.52698 9.9789,5.07433 11.81751,6.38954 19.54113,13.97843 7.6768,7.54287 14.31883,17.10341 18.158,26.13664 l 2.73788,6.44198 -2.30322,1.74898 c -3.23408,2.45584 -19.5238,11.69765 -23.65979,13.42315 l -3.44129,1.43567 z"
     id="path923"
     inkscape:connector-curvature="0" /><path
     style="opacity:1;vector-effect:none;fill:#808080;fill-opacity:1;stroke:none;stroke-width:18.87199974;stroke-linecap:butt;stroke-linejoin:round;stroke-miterlimit:4;stroke-dasharray:none;stroke-dashoffset:0;stroke-opacity:1"
     d="m 286.82493,281.82966 c -1.70221,-3.47129 -5.42986,-9.83425 -8.28367,-14.13993 l -5.18874,-7.82849 5.45032,-7.11587 c 13.01849,-16.99679 43.12132,-47.07442 59.61727,-59.56736 15.16782,-11.4871 42.23182,-29.14388 43.19497,-28.18074 1.19771,1.19772 -16.29649,37.07833 -24.79964,50.86404 -12.13644,19.67619 -21.3262,31.07003 -38.61558,47.87715 -10.31696,10.02918 -23.70807,21.72021 -27.2775,23.81445 -0.57708,0.33858 -2.31585,-2.09012 -4.09743,-5.72325 z"
     id="path925"
     inkscape:connector-curvature="0" /><path
     style="opacity:1;vector-effect:none;fill:#808080;fill-opacity:1;stroke:none;stroke-width:18.87199974;stroke-linecap:butt;stroke-linejoin:round;stroke-miterlimit:4;stroke-dasharray:none;stroke-dashoffset:0;stroke-opacity:1"
     d="m 252.38717,242.0921 c -3.07612,-2.04515 -5.94021,-3.50384 -6.36464,-3.24154 -0.42444,0.26232 -0.7717,0.003 -0.7717,-0.57726 0,-0.57982 -0.42431,-0.79197 -0.94291,-0.47146 -0.5186,0.32052 -0.94291,0.16199 -0.94291,-0.35227 0,-0.87066 -2.35132,-2.01114 -4.04104,-1.96005 -0.40747,0.0123 -1.35459,-0.59133 -2.10471,-1.34145 -0.75012,-0.75013 -1.90182,-1.54342 -2.55933,-1.76289 -1.79495,-0.59913 2.26786,-5.95691 15.5143,-20.45932 19.05597,-20.86276 36.47789,-35.50713 56.21281,-47.25088 19.88036,-11.83029 57.22083,-28.63435 78.41443,-35.28827 4.40811,-1.38397 8.53409,-2.67951 9.16887,-2.87899 0.79921,-0.25116 1.08917,0.78365 0.94291,3.36507 -0.11618,2.05026 -0.56482,3.72995 -0.99698,3.73264 -0.43217,0.003 -0.61201,0.52612 -0.39966,1.16318 0.63858,1.91573 -2.14656,4.06197 -11.07241,8.53245 -10.64907,5.33356 -25.15573,13.63971 -26.40489,15.11878 -0.52047,0.61627 -1.53658,1.24704 -2.25803,1.40171 -2.10623,0.45157 -20.96729,13.56884 -21.49765,14.95094 -0.26549,0.69186 -0.79703,1.06367 -1.1812,0.82624 -1.40469,-0.86814 -23.53624,18.13804 -37.76549,32.43234 -8.03957,8.07632 -18.83311,19.88201 -23.98566,26.23486 -5.15254,6.35285 -9.81891,11.5493 -10.36971,11.54765 -0.55081,-0.002 -3.51828,-1.67632 -6.5944,-3.72148 z"
     id="path927"
     inkscape:connector-curvature="0" /><path
     style="opacity:1;vector-effect:none;fill:#b3b3b3;fill-opacity:1;stroke:none;stroke-width:18.87199974;stroke-linecap:butt;stroke-linejoin:round;stroke-miterlimit:4;stroke-dasharray:none;stroke-dashoffset:0;stroke-opacity:1"
     d="m 136.63831,381.35985 c 3.76917,-5.5097 5.87497,-9.78236 5.16914,-10.48819 -0.32505,-0.32505 -0.16041,-0.591 0.36586,-0.591 1.06141,0 4.3863,-6.81349 4.3863,-8.98857 0,-0.76089 0.31987,-1.38343 0.71084,-1.38343 0.64843,0 2.17612,-4.81027 2.24593,-7.07183 0.016,-0.5186 0.26686,-1.15506 0.55746,-1.41436 0.29059,-0.2593 1.51212,-4.29024 2.7145,-8.95764 5.8673,-22.77556 15.10254,-37.5108 27.54371,-43.94722 6.16735,-3.19067 18.298,-3.59859 25.56318,-0.85963 6.92314,2.61002 14.05918,9.44389 17.47651,16.7365 2.1788,4.64956 2.54944,6.67425 2.54944,13.9267 0,10.60766 -2.09,15.39031 -10.35784,23.70239 -13.88841,13.96272 -34.96185,23.78297 -65.29274,30.42652 -17.38333,3.80757 -17.00364,3.83793 -13.63229,-1.09024 z"
     id="path929"
     inkscape:connector-curvature="0" /><path
     style="opacity:1;vector-effect:none;fill:#b3b3b3;fill-opacity:1;stroke:none;stroke-width:18.87199974;stroke-linecap:butt;stroke-linejoin:round;stroke-miterlimit:4;stroke-dasharray:none;stroke-dashoffset:0;stroke-opacity:1"
     d="m 236.25577,493.78168 c -1.05778,-0.39339 -4.2401,-0.986 -7.07182,-1.3169 -2.83173,-0.33091 -6.20936,-0.78026 -7.50587,-0.99856 -1.2965,-0.2183 -3.84235,-0.62448 -5.65745,-0.90263 -1.81511,-0.27815 -4.36096,-0.75758 -5.65746,-1.06541 -1.2965,-0.30783 -3.2059,-0.7155 -4.2431,-0.90594 -1.0372,-0.19044 -2.84051,-0.58127 -4.00736,-0.86851 -1.16685,-0.28725 -2.97176,-0.71036 -4.01091,-0.94026 -1.03916,-0.22989 -2.31209,-0.67924 -2.82873,-0.99855 -0.51665,-0.31931 -0.93937,-0.0502 -0.93937,0.59821 0,0.77211 -0.40662,0.66151 -1.17864,-0.3206 -1.62816,-2.07122 -5.41744,-3.12906 -5.43616,-1.5176 -0.0106,0.91014 -0.25344,0.86411 -0.90852,-0.17219 -0.49175,-0.7779 -1.33386,-1.4674 -1.87139,-1.53222 -0.53751,-0.0649 -1.18945,-0.22395 -1.44875,-0.3536 -0.2593,-0.12965 -0.89576,-0.3418 -1.41437,-0.47145 -0.5186,-0.12965 -1.15506,-0.34181 -1.41436,-0.47146 -0.2593,-0.12965 -0.89576,-0.3418 -1.41436,-0.47145 -0.5186,-0.12965 -1.26115,-0.33901 -1.6501,-0.46525 -0.38895,-0.12624 -1.02541,-0.17928 -1.41436,-0.11786 -0.38895,0.0614 -0.70718,-0.27895 -0.70718,-0.75633 0,-0.79805 -4.8153,-2.30328 -6.24353,-1.95168 -0.3396,0.0836 -0.91522,-0.3298 -1.27917,-0.91867 -0.36394,-0.58888 -1.57823,-1.13972 -2.69843,-1.2241 -1.12018,-0.0844 -2.0367,-0.48744 -2.0367,-0.89567 0,-0.40825 -0.31823,-0.65503 -0.70718,-0.5484 -0.38895,0.10662 -2.0324,-0.51292 -3.6521,-1.37675 -1.61969,-0.86385 -3.21085,-1.30468 -3.53591,-0.97963 -0.32505,0.32505 -0.591,0.0253 -0.591,-0.66621 0,-0.69147 -0.2838,-0.97342 -0.63066,-0.62655 -0.34687,0.34686 -1.30157,0.0235 -2.12155,-0.71857 -0.81998,-0.74208 -1.70304,-1.31721 -1.96234,-1.27807 -1.3147,0.19846 -4.71455,-1.39566 -4.71455,-2.21055 0,-0.51426 -0.42431,-0.67278 -0.94291,-0.35227 -0.5186,0.32052 -0.94291,0.21199 -0.94291,-0.24116 0,-1.15244 -6.53781,-4.15188 -7.60803,-3.49045 -0.48299,0.2985 -0.87815,-0.0505 -0.87815,-0.77559 0,-0.72508 -1.69238,-2.12912 -3.76083,-3.12011 -2.06845,-0.99098 -3.76569,-2.12002 -3.77164,-2.50897 -0.006,-0.38895 -0.64728,-0.70718 -1.42518,-0.70718 -0.7779,0 -1.41436,-0.42431 -1.41436,-0.94291 0,-0.5186 -0.44283,-0.94291 -0.98406,-0.94291 -0.54124,0 -2.12806,-1.06077 -3.52628,-2.35727 -1.39822,-1.2965 -3.03154,-2.35728 -3.6296,-2.35728 -0.59807,0 -1.33163,-0.63646 -1.63014,-1.41436 -0.29851,-0.7779 -1.09046,-1.41437 -1.75989,-1.41437 -0.66943,0 -1.74711,-0.84861 -2.39486,-1.88582 -0.64774,-1.0372 -1.64343,-1.88582 -2.21265,-1.88582 -0.56922,0 -1.86295,-1.05263 -2.87496,-2.33919 -1.01201,-1.28657 -2.14345,-2.24126 -2.51432,-2.12155 -0.37086,0.11971 -2.2938,-1.57302 -4.273197,-3.76161 -1.979393,-2.18859 -3.882759,-3.88582 -4.229702,-3.77164 -0.683258,0.22489 -11.488895,-10.7403 -17.587285,-17.84697 -2.074401,-2.41737 -4.726335,-5.333 -5.893186,-6.47917 -1.16685,-1.14618 -2.121547,-2.47139 -2.121547,-2.94492 0,-0.47353 -0.742541,-1.52567 -1.650092,-2.33811 -0.90755,-0.81243 -2.286556,-2.44381 -3.064456,-3.62527 -0.777901,-1.18147 -1.944752,-2.70229 -2.593002,-3.3796 -0.648251,-0.67731 -1.178637,-1.6861 -1.178637,-2.24174 0,-0.55565 -0.42431,-1.01026 -0.94291,-1.01026 -0.5186,0 -0.94291,-0.63647 -0.94291,-1.41437 0,-0.7779 -0.424309,-1.41436 -0.94291,-1.41436 -0.5186,0 -0.942909,-0.63647 -0.942909,-1.41437 0,-0.7779 -0.42431,-1.41436 -0.94291,-1.41436 -0.518601,0 -0.94291,-0.63646 -0.94291,-1.41437 0,-0.7779 -0.742541,-1.42086 -1.650092,-1.4288 -1.179052,-0.0103 -1.313249,-0.22831 -0.470105,-0.76366 0.896978,-0.56953 0.740985,-1.22044 -0.650403,-2.71392 -1.006714,-1.08058 -1.573067,-2.22201 -1.258563,-2.53652 0.314505,-0.31451 0.162038,-0.57183 -0.338815,-0.57183 -0.500852,0 -1.447654,-1.48508 -2.104004,-3.30018 -0.716122,-1.98041 -1.828845,-3.30596 -2.782421,-3.31462 -1.370586,-0.0125 -1.394604,-0.14011 -0.174695,-0.92848 1.02774,-0.66417 1.076966,-0.91798 0.18008,-0.92847 -0.678856,-0.008 -0.972047,-0.43875 -0.651534,-0.95735 0.320513,-0.5186 0.182886,-0.94291 -0.305835,-0.94291 -0.851887,0 -2.365504,-3.4795 -2.153416,-4.95027 0.05608,-0.38895 -0.347375,-0.70718 -0.896581,-0.70718 -0.549207,0 -0.73632,-0.42431 -0.415807,-0.94291 0.320513,-0.5186 -0.184833,-0.97642 -1.12299,-1.01736 -0.938156,-0.0409 -1.216156,-0.27485 -0.617775,-0.5198 1.547917,-0.63365 -1.607249,-7.86557 -3.445239,-7.89679 -1.162411,-0.0198 -1.184577,-0.1696 -0.124432,-0.84121 1.041363,-0.6597 0.905089,-1.20202 -0.707182,-2.81429 -1.098414,-1.0984 -1.61253,-1.99711 -1.142481,-1.99711 0.47005,0 0.632716,-0.84862 0.361483,-1.88582 -0.271234,-1.0372 -0.893016,-1.88582 -1.381738,-1.88582 -0.488721,0 -0.642464,-0.39823 -0.341651,-0.88496 0.300815,-0.48673 -0.204531,-1.32244 -1.122989,-1.85714 -1.309806,-0.76254 -1.364917,-0.98484 -0.255559,-1.03085 1.085588,-0.0451 0.988899,-0.38047 -0.415946,-1.44304 -1.319722,-0.99819 -1.45124,-1.39274 -0.471455,-1.41436 0.979786,-0.0216 0.848267,-0.41618 -0.471454,-1.41437 -1.319722,-0.99819 -1.45124,-1.39274 -0.471455,-1.41436 0.979786,-0.0216 0.848267,-0.41618 -0.471455,-1.41437 -1.114441,-0.84292 -1.345878,-1.38438 -0.591728,-1.38438 0.929246,0 0.976298,-0.31603 0.188399,-1.26539 -0.577601,-0.69596 -0.829839,-1.48573 -0.560529,-1.75505 0.269311,-0.26931 -0.01269,-1.71535 -0.626665,-3.21342 -0.613977,-1.49808 -1.197684,-3.14809 -1.297127,-3.66669 -0.09944,-0.5186 -0.294378,-1.36722 -0.433189,-1.88582 -0.550354,-2.05614 -0.696202,-2.9099 -0.834146,-4.88292 -0.07899,-1.12982 -0.81039,-2.72098 -1.625334,-3.53591 -0.814943,-0.81495 -1.027098,-1.48172 -0.471454,-1.48172 1.461947,0 1.240093,-1.52128 -0.471455,-3.23283 -0.85658,-0.85658 -1.032009,-1.48172 -0.415808,-1.48172 0.58625,0 0.86369,-0.3272 0.616534,-0.72711 -0.247156,-0.3999 -0.732395,-2.62466 -1.078308,-4.94391 -0.345914,-2.31924 -1.123433,-4.53141 -1.72782,-4.91591 -0.661509,-0.42085 -0.705127,-0.70486 -0.109586,-0.71355 0.573928,-0.008 0.827535,-1.40007 0.604022,-3.31462 -0.211903,-1.8151 -0.788207,-3.30018 -1.280676,-3.30018 -0.492468,0 -0.57829,-0.5131 -0.190715,-1.14021 0.986065,-1.59548 0.381728,-9.57206 -0.779596,-10.28979 -0.632852,-0.39113 -0.603816,-0.81102 0.08554,-1.23707 1.557865,-0.96282 1.430459,-27.56392 -0.13506,-28.19915 -0.835989,-0.33921 -0.878143,-0.70471 -0.144999,-1.25721 1.531114,-1.15387 2.515754,-9.73661 1.117016,-9.73661 -0.845977,0 -0.841644,-0.27181 0.01804,-1.13149 0.622321,-0.62232 1.131492,-2.42844 1.131492,-4.01359 0,-1.58516 0.39469,-4.25831 0.877089,-5.94033 0.635462,-2.21573 0.570522,-3.06222 -0.235727,-3.07267 -0.82941,-0.0108 -0.836686,-0.19087 -0.02857,-0.70719 0.596335,-0.38101 1.331194,-2.17783 1.633018,-3.99293 0.907358,-5.45663 1.38911,-7.50214 1.999476,-8.48973 0.319307,-0.51665 0.1009,-0.93936 -0.485349,-0.93936 -0.586249,0 -0.342309,-0.7236 0.54209,-1.608 1.028969,-1.02897 1.22602,-1.73533 0.547224,-1.96159 -0.697397,-0.23247 -0.55529,-0.85907 0.414843,-1.8292 1.091507,-1.09152 1.184265,-1.65569 0.356343,-2.16738 -0.845963,-0.52283 -0.850438,-0.78136 -0.01832,-1.05872 0.605523,-0.20184 1.22591,-0.99575 1.37864,-1.76424 0.15273,-0.76849 0.52059,-2.03371 0.817467,-2.81161 0.734578,-1.9248 5.780666,-17.32658 5.869586,-17.91529 0.03917,-0.2593 0.601491,-1.42615 1.249611,-2.593 0.64812,-1.16685 0.941535,-2.12155 0.652033,-2.12155 -0.289501,0 0.07297,-0.95469 0.805505,-2.12154 0.732528,-1.16685 1.204164,-2.86409 1.048079,-3.77164 -0.156087,-0.90755 0.105759,-1.65009 0.581879,-1.65009 0.476119,0 2.878353,-4.13702 5.338298,-9.19337 2.459943,-5.05636 4.896934,-9.50511 5.415535,-9.88612 0.5186,-0.38101 0.594369,-0.69924 0.168376,-0.70718 -0.425993,-0.008 -0.08336,-0.70561 0.76141,-1.55038 0.844768,-0.84477 1.312702,-2.1177 1.039853,-2.82873 -0.272849,-0.71103 0.02499,-1.29279 0.661869,-1.29279 1.774048,0 3.731853,-3.51448 2.284765,-4.10141 -0.629549,-0.25534 -0.356696,-0.49775 0.606339,-0.53869 1.15519,-0.0491 1.5663,-0.5557 1.20823,-1.48881 -0.330607,-0.86155 -0.0015,-1.41437 0.842029,-1.41437 0.761624,0 1.384771,-0.63646 1.384771,-1.41436 0,-0.7779 0.42431,-1.41436 0.94291,-1.41436 0.518601,0 0.94291,-0.40246 0.94291,-0.89434 0,-0.49187 1.060773,-2.03892 2.357274,-3.43786 1.296501,-1.39895 2.357275,-2.9059 2.357275,-3.34877 0,-0.44287 0.742541,-1.60344 1.650092,-2.57905 0.90755,-0.97561 2.498711,-2.90818 3.535911,-4.2946 1.037201,-1.38642 3.052671,-3.62849 4.478822,-4.98239 1.426151,-1.3539 2.593002,-2.73976 2.593002,-3.07968 0,-0.747047 22.469471,-23.088571 26.565896,-26.414622 1.5968,-1.296501 3.92956,-3.31197 5.18392,-4.478821 1.25436,-1.166851 2.69899,-2.121547 3.2103,-2.121547 0.5113,0 1.17387,-0.636464 1.47238,-1.414365 0.29851,-0.7779 1.14713,-1.414364 1.88582,-1.414364 0.73869,0 1.58731,-0.636465 1.88582,-1.414365 0.29851,-0.777901 1.13381,-1.414365 1.85623,-1.414365 0.72241,0 1.31348,-0.424309 1.31348,-0.942909 0,-0.518601 0.44149,-0.94291 0.98109,-0.94291 1.11638,0 6.87082,-3.876742 7.34794,-4.950276 0.17288,-0.388951 0.91542,-0.707183 1.6501,-0.707183 0.73468,0 1.33579,-0.37831 1.33579,-0.840691 0,-0.46238 1.06077,-1.106928 2.35727,-1.432329 1.32923,-0.333616 2.38974,-1.303433 2.43172,-2.223765 0.0409,-0.89767 0.27306,-1.147928 0.51582,-0.556128 0.61279,1.493876 7.87354,-2.52688 7.90258,-4.376184 0.0197,-1.257213 0.12378,-1.257213 0.93625,0 0.66418,1.027739 0.91798,1.076965 0.92848,0.180079 0.008,-0.678856 0.40453,-0.993188 0.88133,-0.698516 0.47679,0.294674 1.48705,-0.08439 2.24502,-0.842361 0.75797,-0.757972 1.6408,-1.115463 1.96183,-0.794424 0.32105,0.321038 0.58371,0.06364 0.58371,-0.572003 0,-0.63564 0.42431,-0.893473 0.94291,-0.57296 0.5186,0.320513 0.94941,-0.184833 0.95735,-1.122989 0.0122,-1.446243 0.15349,-1.49057 0.92847,-0.291375 0.7526,1.164568 0.91659,1.178446 0.92848,0.07857 0.008,-0.734683 0.28038,-1.069837 0.60543,-0.744787 0.32506,0.32505 1.91622,-0.111465 3.53591,-0.970034 1.6197,-0.85857 3.36922,-1.651314 3.88782,-1.761653 2.67232,-0.568571 7.90251,-3.306161 8.32536,-4.357665 0.34381,-0.854959 0.5049,-0.875622 0.55784,-0.07156 0.0741,1.126007 0.32277,1.061816 8.08918,-2.088515 2.39649,-0.972103 2.99349,-1.13672 4.6472,-1.281419 0.74086,-0.06482 2.01379,-0.784636 2.82873,-1.59958 0.85657,-0.856574 1.48171,-1.032003 1.48171,-0.415802 0,0.616821 0.49659,0.755685 1.17864,0.329593 0.64825,-0.404973 1.77262,-0.826114 2.49861,-0.935869 0.72598,-0.109754 1.67418,-0.75815 2.10711,-1.440879 0.62635,-0.987769 0.79008,-0.993798 0.80158,-0.02951 0.0103,0.860667 0.49258,0.956342 1.66452,0.33018 0.90755,-0.484898 3.32953,-1.148011 5.38218,-1.473585 2.05265,-0.325573 3.96204,-0.898464 4.24309,-1.273089 0.28106,-0.374626 2.14053,-0.756538 4.13216,-0.848694 1.99164,-0.09216 4.32534,-0.451242 5.18601,-0.797971 0.86067,-0.346728 4.74026,-0.780981 8.62131,-0.965006 3.88106,-0.184025 7.2057,-0.782278 7.38809,-1.329451 0.18239,-0.547173 0.82577,-0.677995 1.42972,-0.290716 0.60396,0.387278 11.918,0.785192 25.14231,0.884252 13.2243,0.09906 25.31712,0.387253 26.87292,0.64043 1.5558,0.253178 4.52597,0.702237 6.60037,0.997911 6.07536,0.865946 10.56364,1.827174 15.5098,3.321639 2.32034,0.70108 3.43569,0.685327 3.89323,-0.05499 0.46131,-0.746402 0.74165,-0.736368 0.99902,0.03576 0.53522,1.605632 9.29559,4.080118 9.31405,2.630878 0.008,-0.691697 0.36294,-0.582233 0.90852,0.280828 0.49174,0.777901 1.22778,1.449919 1.63565,1.493375 0.40787,0.04346 1.96627,0.585332 3.46311,1.20417 1.49685,0.618838 3.6184,1.294295 4.71455,1.501014 1.09616,0.20672 2.09909,0.460423 2.22874,0.563786 0.12965,0.103362 0.55396,0.278621 0.94291,0.389464 0.38895,0.110843 2.18806,0.868503 3.99802,1.683689 1.80997,0.815186 3.61329,1.28288 4.00737,1.03932 0.39409,-0.243559 0.71652,-0.03948 0.71652,0.453503 0,0.783731 4.57018,2.463196 5.55204,2.040281 0.20132,-0.08671 0.62563,0.196809 0.94291,0.630054 0.31728,0.433243 2.1395,1.509785 4.04938,2.392315 2.57292,1.188915 3.59178,1.311048 3.93292,0.471455 0.25324,-0.62323 0.50042,-0.284525 0.54931,0.752675 0.0739,1.569383 0.24225,1.648492 1.00291,0.471455 0.75816,-1.17318 0.91896,-1.092786 0.94291,0.471455 0.0239,1.564241 0.18474,1.644636 0.94291,0.471455 0.80531,-1.246125 0.91575,-1.240435 0.92847,0.04783 0.0134,1.352621 8.08112,6.172116 9.67926,5.782171 0.38895,-0.0949 0.70719,0.154544 0.70719,0.554326 0,0.399781 2.01547,1.778787 4.47882,3.064457 2.46335,1.285669 4.62026,2.655812 4.79312,3.044763 0.17287,0.38895 0.91541,0.707182 1.65009,0.707182 0.73469,0 1.33579,0.424309 1.33579,0.94291 0,0.5186 0.63647,0.942909 1.41437,0.942909 0.7779,0 1.41436,0.42431 1.41436,0.94291 0,0.518601 0.63647,0.94291 1.41437,0.94291 0.7779,0 1.41436,0.459668 1.41436,1.021485 0,0.561818 0.47012,0.86478 1.04471,0.673252 0.57458,-0.19153 2.56053,1.040208 4.4132,2.737193 1.85268,1.696985 3.51825,2.93568 3.70127,2.752655 0.3986,-0.398597 2.58174,1.65043 19.67023,18.461955 13.75478,13.531842 17.55303,17.566433 20.67335,21.959733 1.0372,1.46034 2.5547,3.3655 3.37222,4.23368 0.81752,0.86818 1.75889,2.28864 2.09196,3.15657 0.33305,0.86794 1.24201,1.57807 2.01992,1.57807 0.86982,0 1.2054,0.54454 0.87162,1.41436 -0.29851,0.7779 -0.0731,1.41437 0.50104,1.41437 0.5741,0 1.0438,0.55645 1.0438,1.23657 0,0.68011 0.84862,2.14744 1.88582,3.26076 1.0372,1.1133 1.88582,2.46623 1.88582,3.00652 0,0.54028 0.4243,0.98233 0.94291,0.98233 0.5186,0 0.9429,0.63647 0.9429,1.41437 0,0.7779 0.74255,1.44787 1.6501,1.48881 0.92784,0.0419 1.14908,0.27764 0.50545,0.53869 -1.54759,0.6277 0.55546,4.07153 2.55009,4.17586 0.94693,0.0495 1.0336,0.23201 0.25896,0.54525 -1.57213,0.63573 2.51494,7.84376 4.4645,7.87367 1.25721,0.0193 1.25721,0.12325 0,0.93573 -1.02774,0.66418 -1.07696,0.91798 -0.18007,0.92847 0.67885,0.008 0.97204,0.43875 0.65153,0.95735 -0.32052,0.5186 -0.10836,0.94291 0.47145,0.94291 0.57982,0 0.79197,0.42431 0.47146,0.94291 -0.32052,0.5186 -0.10836,0.94291 0.47145,0.94291 0.57982,0 0.79197,0.42431 0.47146,0.94291 -0.32052,0.5186 -0.10836,0.94291 0.47145,0.94291 0.57982,0 0.79197,0.42431 0.47146,0.94291 -0.32052,0.5186 0.18483,0.9494 1.12298,0.95734 1.44625,0.0123 1.49057,0.1535 0.29138,0.92848 -1.17703,0.76066 -1.09792,0.92894 0.47146,1.0029 1.0372,0.0489 1.36173,0.3008 0.72118,0.55981 -0.89548,0.3621 -0.8366,1.10528 0.25483,3.21586 0.78071,1.50972 1.32422,2.85547 1.20781,2.99055 -0.11641,0.13508 0.47817,1.51854 1.3213,3.07434 1.3294,2.45312 2.65323,5.51853 3.05402,7.07182 0.65295,2.53051 2.79964,8.21276 3.38411,8.95765 0.40692,0.5186 0.79068,1.36722 0.8528,1.88582 0.3326,2.77637 2.34634,8.01473 3.08103,8.01473 0.46713,0 0.61074,0.38601 0.31917,0.85779 -0.6103,0.98748 1.40992,10.45713 2.23088,10.45713 0.29989,0 0.57357,0.95469 0.60819,2.12154 0.0828,2.79009 0.89825,7.61962 2.26877,13.43647 0.69396,2.94535 1.18143,15.15284 1.29902,32.53038 0.10352,15.29871 0.49844,28.30999 0.87762,28.91394 0.37917,0.60396 0.22489,1.25294 -0.34285,1.44219 -0.56773,0.18925 -1.19408,2.45311 -1.39188,5.03081 -0.38641,5.03534 -1.03295,9.86493 -1.82661,13.64437 -0.27225,1.2965 -0.69841,3.41805 -0.94702,4.71455 -0.43112,2.24839 -0.95059,4.62664 -1.80209,8.25046 -0.21325,0.90755 -0.83921,2.81694 -1.39102,4.24309 -0.55182,1.42616 -0.82331,2.59301 -0.60331,2.59301 0.22001,0 -0.2205,1.48508 -0.9789,3.30018 -1.01915,2.43918 -1.08258,3.30018 -0.24312,3.30018 0.62468,0 0.31214,0.62298 -0.69453,1.38438 -1.00667,0.7614 -1.46012,1.39787 -1.00767,1.41437 0.45245,0.0165 0.29442,0.66645 -0.35118,1.44435 -0.6456,0.7779 -0.85776,1.41436 -0.47146,1.41436 0.3863,0 0.17415,0.63647 -0.47145,1.41437 -0.94207,1.13513 -0.92929,1.41436 0.0648,1.41436 0.75415,0 0.52272,0.54146 -0.59173,1.38438 -1.31972,0.99819 -1.45124,1.39275 -0.47145,1.41437 1.04034,0.0229 0.97275,0.31231 -0.28835,1.23445 -0.90597,0.66245 -1.75001,1.82931 -1.87567,2.59301 -0.12564,0.76369 -0.81012,2.4493 -1.52106,3.7458 -0.71095,1.2965 -1.21233,2.4678 -1.11419,2.60288 0.0981,0.13508 -0.47752,1.51409 -1.27925,3.06446 -0.92481,1.7884 -1.07952,2.81885 -0.4232,2.81885 0.56896,0 0.2914,0.74254 -0.6168,1.65009 -0.9082,0.90755 -3.10925,4.83241 -4.89124,8.72191 -1.78198,3.88951 -3.78894,7.70829 -4.4599,8.48619 -0.67095,0.7779 -1.36429,2.2313 -1.54075,3.22977 -0.17645,0.99848 -1.29497,2.88475 -2.4856,4.19171 -1.19063,1.30696 -2.80295,3.72112 -3.58293,5.3648 -0.77997,1.64369 -2.26725,3.89993 -3.30505,5.01388 -1.0378,1.11395 -1.62807,2.44418 -1.31171,2.95607 0.31637,0.51188 -0.0863,0.9307 -0.8948,0.9307 -0.80851,0 -1.47001,0.35939 -1.47001,0.79863 0,0.43925 -0.74255,1.6726 -1.6501,2.74079 -2.8493,3.35361 -4.48756,6.02369 -4.24309,6.91552 0.12965,0.47299 -0.39096,0.85997 -1.1569,0.85997 -0.76595,0 -2.14053,1.16685 -3.05463,2.59301 -2.04786,3.19499 -25.80379,26.99728 -30.82014,30.88029 -2.0099,1.5558 -4.37026,3.49761 -5.24525,4.31512 -0.87499,0.81753 -2.30103,1.7589 -3.16896,2.09196 -0.86796,0.33306 -1.57808,1.04318 -1.57808,1.57807 0,0.53487 -0.64978,0.97249 -1.44395,0.97249 -0.79419,0 -1.6882,0.63647 -1.9867,1.41437 -0.29852,0.7779 -1.13382,1.41436 -1.85624,1.41436 -0.72241,0 -1.31348,0.42431 -1.31348,0.94291 0,0.5186 -0.45393,0.94291 -1.00874,0.94291 -1.00259,0 -9.405,5.41899 -10.30618,6.64678 -0.2593,0.35328 -1.42364,0.93947 -2.58742,1.30264 -1.16377,0.36317 -2.64886,1.17208 -3.30018,1.79758 -1.08982,1.04662 -23.25076,12.18641 -27.58569,13.86669 -3.51216,1.36135 -5.65402,2.12885 -6.60037,2.36513 -3.25673,0.81308 -6.13098,2.43366 -6.14335,3.46378 -0.0109,0.90714 -0.21516,0.88512 -0.83275,-0.0898 -0.66073,-1.04302 -1.01557,-0.95223 -1.84271,0.47146 -0.77186,1.32855 -1.03886,1.41455 -1.08305,0.34885 -0.0451,-1.08559 -0.38048,-0.98889 -1.44304,0.41595 -0.76141,1.00667 -1.38438,1.3192 -1.38438,0.69453 0,-0.83834 -0.86873,-0.7728 -3.3173,0.25027 -1.82451,0.76234 -3.52175,1.40449 -3.77164,1.42702 -0.24989,0.0225 -0.56042,0.0734 -0.69007,0.1131 -0.12965,0.0397 -0.87219,0.22704 -1.65009,0.41634 -1.53437,0.37339 -4.5575,1.12235 -7.54328,1.8688 -3.19376,0.79843 -6.00712,1.41155 -8.91908,1.94372 -1.5346,0.28046 -3.33791,0.9645 -4.00737,1.5201 -0.87751,0.72823 -1.21719,0.69926 -1.21719,-0.10386 0,-0.61271 -0.42812,-0.84942 -0.95138,-0.52603 -0.52326,0.32339 -2.96304,0.799 -5.42173,1.05693 -2.4587,0.25792 -5.95544,0.62465 -7.77054,0.81495 -1.8151,0.19031 -11.99853,0.61435 -22.62983,0.94231 -10.63131,0.32796 -19.75396,0.7267 -20.27256,0.88608 -0.51861,0.15939 -1.80837,-0.0321 -2.86615,-0.42548 z m 42.9475,-86.73834 c 2.07325,-2.9116 3.30593,-9.41829 1.78429,-9.41829 -0.46698,0 -0.74299,-0.4957 -0.61334,-1.10156 0.12965,-0.60585 -0.71645,-1.59842 -1.88023,-2.20571 -1.16378,-0.60728 -1.94168,-1.27843 -1.72867,-1.49145 0.48284,-0.48284 -2.62736,-0.55292 -48.26804,-1.08747 -20.36436,-0.23852 -37.22552,-0.63309 -37.46925,-0.87682 -0.24373,-0.24374 3.15834,-2.29474 7.56017,-4.55778 4.40183,-2.26304 8.00333,-4.46043 8.00333,-4.8831 0,-0.42267 0.46104,-0.76849 1.02454,-0.76849 1.75905,0 14.40693,-9.18462 19.79558,-14.37512 5.54493,-5.34105 10.54792,-11.29741 10.60022,-12.62019 0.0178,-0.45129 0.59703,-1.38512 1.28709,-2.07518 0.69006,-0.69006 1.03595,-1.60852 0.76866,-2.04102 -0.2673,-0.43249 -0.0713,-0.92867 0.43552,-1.10262 0.50683,-0.17394 1.08108,-1.16488 1.27611,-2.20208 0.19503,-1.0372 0.78284,-2.94659 1.30625,-4.24309 0.52341,-1.2965 1.13115,-2.92514 1.35053,-3.61921 0.44592,-1.41078 5.66669,-4.42124 27.68773,-15.96559 1.5558,-0.81562 3.04088,-1.77723 3.30018,-2.1369 0.2593,-0.35968 1.42615,-0.95189 2.593,-1.31605 1.16685,-0.36414 2.12155,-1.05779 2.12155,-1.54145 0,-0.48364 0.63646,-0.87936 1.41436,-0.87936 0.77791,0 1.41437,-0.42431 1.41437,-0.94291 0,-0.5186 0.53039,-0.94126 1.17864,-0.93924 1.52647,0.005 16.73664,-10.41187 16.73664,-11.46203 0,-0.43971 0.55355,-0.79947 1.23011,-0.79947 0.67655,0 2.85143,-1.48508 4.83307,-3.30018 1.98163,-1.81511 3.94313,-3.30019 4.35891,-3.30019 0.41578,0 1.59036,-1.06077 2.61019,-2.35727 1.01983,-1.2965 2.24333,-2.35728 2.71891,-2.35728 1.01201,0 22.63632,-21.10408 28.11471,-27.43835 2.06308,-2.38538 5.54903,-6.41632 7.74656,-8.95764 2.19754,-2.54132 4.00085,-5.15097 4.00737,-5.79922 0.007,-0.64825 0.39502,-1.17864 0.86333,-1.17864 0.46831,0 3.88412,-4.45524 7.59068,-9.90055 3.70657,-5.4453 6.48919,-9.90055 6.18362,-9.90055 -0.30557,0 0.29488,-0.91288 1.33434,-2.02861 1.03948,-1.11575 1.66743,-2.38868 1.39545,-2.82873 -0.27197,-0.44007 -0.11325,-0.80012 0.35272,-0.80012 0.79667,0 3.40519,-4.76027 3.04238,-5.55204 -0.0922,-0.20131 0.23582,-0.62562 0.72906,-0.94291 1.13309,-0.72889 5.36791,-8.82206 5.11234,-9.77024 -0.10483,-0.38895 0.25876,-0.70719 0.80796,-0.70719 0.54921,0 0.73632,-0.4243 0.41581,-0.9429 -0.32052,-0.51861 -0.10836,-0.94291 0.47145,-0.94291 0.57982,0 0.79197,-0.42431 0.47146,-0.94291 -0.32052,-0.5186 -0.10836,-0.94291 0.47145,-0.94291 0.57982,0 0.79197,-0.42431 0.47146,-0.94291 -0.32052,-0.5186 -0.10836,-0.94291 0.47145,-0.94291 0.57982,0 0.79197,-0.42431 0.47146,-0.94291 -0.32052,-0.5186 -0.10836,-0.94291 0.47145,-0.94291 0.57982,0 0.79197,-0.42431 0.47146,-0.94291 -0.32052,-0.5186 -0.23948,-0.94451 0.18007,-0.94645 0.74815,-0.004 4.47065,-8.1579 3.96488,-8.6854 -0.14171,-0.14779 0.9235,-2.28418 2.36712,-4.74753 1.44362,-2.46335 2.26621,-4.48531 1.82798,-4.49325 -0.43822,-0.008 -0.36228,-0.32618 0.16876,-0.70719 0.88558,-0.63538 7.86334,-17.49751 8.37875,-20.24767 0.12257,-0.65401 0.94056,-2.84698 1.81777,-4.87329 2.6601,-6.14472 9.99793,-30.90602 10.64625,-35.92547 0.90461,-7.00367 0.66999,-8.28102 -1.93449,-10.53169 -1.88142,-1.62585 -3.21508,-1.96215 -6.4102,-1.61645 -2.21898,0.2401 -4.7687,0.44839 -5.66604,0.46288 -0.89734,0.0145 -1.88135,0.43058 -2.18671,0.92464 -0.30534,0.49406 -0.91455,0.67618 -1.3538,0.40471 -0.43924,-0.27147 -2.00109,0.002 -3.47075,0.60834 -1.46968,0.60605 -2.97565,1.0383 -3.34661,0.96055 -0.37096,-0.0777 -1.85604,0.34857 -3.30018,0.94737 -1.44414,0.5988 -2.94394,1.17732 -3.33289,1.2856 -0.38895,0.10828 -0.81326,0.28237 -0.94291,0.38688 -0.12965,0.1045 -1.01141,0.33701 -1.95946,0.51669 -0.94804,0.17968 -2.43313,0.63527 -3.30018,1.01242 -0.86705,0.37716 -2.26115,0.82266 -3.09801,0.99 -0.83686,0.16735 -2.74625,0.80493 -4.2431,1.41684 -1.49684,0.61191 -3.49614,1.26209 -4.44289,1.44486 -0.94673,0.18275 -2.64397,0.8454 -3.77163,1.47255 -1.12766,0.62715 -2.36853,1.20835 -2.75748,1.29154 -0.38895,0.0832 -0.81326,0.23585 -0.94291,0.33921 -0.12965,0.10336 -1.27808,0.37927 -2.55207,0.61313 -1.27399,0.23386 -2.64649,0.94487 -3.05002,1.58002 -0.40352,0.63516 -0.74017,0.84003 -0.74811,0.45529 -0.0178,-0.86438 -7.80941,2.13069 -8.60604,3.30816 -0.31729,0.46894 -0.84958,0.80879 -1.18288,0.7552 -1.46059,-0.23484 -5.31208,1.16044 -5.31208,1.92441 0,0.46237 -0.31823,0.74961 -0.70718,0.6383 -1.25546,-0.35931 -9.66482,3.25837 -9.66482,4.15777 0,0.47875 -0.42431,0.60822 -0.94291,0.28771 -0.5186,-0.32052 -0.94291,-0.0627 -0.94291,0.57296 0,0.63564 -0.26322,0.8925 -0.58491,0.5708 -0.67904,-0.67905 -11.98963,4.81414 -12.46064,6.05172 -0.17394,0.45705 -0.70433,0.59116 -1.17863,0.29802 -0.4743,-0.29313 -0.86238,-0.15434 -0.86238,0.30844 0,0.46277 -0.53039,0.84788 -1.17864,0.8558 -1.52442,0.0187 -16.04972,8.63306 -16.95794,10.05714 -0.38101,0.59743 -0.69924,0.75506 -0.70718,0.35031 -0.0176,-0.89885 -11.92468,7.03497 -22.17281,14.77403 -8.84687,6.68087 -38.59335,36.38545 -47.31767,47.25102 -7.36972,9.17852 -19.53917,26.86744 -18.4977,26.88736 0.41502,0.008 0.28764,0.32617 -0.28309,0.70718 -1.47864,0.98713 -6.20258,8.70458 -5.33878,8.72192 0.39545,0.008 0.2723,0.32617 -0.27368,0.70718 -1.66674,1.16314 -5.1512,7.43529 -4.49513,8.09137 0.33887,0.33886 0.0961,0.61611 -0.53959,0.61611 -0.63565,0 -0.89348,0.42431 -0.57296,0.94291 0.32051,0.5186 0.10836,0.94291 -0.47146,0.94291 -0.57981,0 -0.79197,0.42431 -0.47145,0.94291 0.32051,0.5186 0.10836,0.94291 -0.47146,0.94291 -0.57981,0 -0.79197,0.42431 -0.47145,0.94291 0.32051,0.5186 0.10836,0.94291 -0.47146,0.94291 -0.57981,0 -0.79197,0.42431 -0.47145,0.94291 0.32051,0.5186 0.10836,0.94291 -0.47146,0.94291 -0.57981,0 -0.79197,0.42431 -0.47145,0.94291 0.32051,0.5186 0.1646,0.94291 -0.34646,0.94291 -0.51106,0 -2.06882,2.3293 -3.4617,5.17622 -1.39287,2.84692 -2.90916,4.94343 -3.36954,4.6589 -0.46036,-0.28452 -1.36742,-0.18598 -2.01567,0.21899 -0.64825,0.40498 -1.76485,0.82497 -2.48131,0.93333 -2.11396,0.31972 -9.71829,4.3565 -13.78389,7.31723 -7.51192,5.47048 -20.28339,20.9724 -18.63578,22.62001 0.30984,0.30984 0.1198,0.56335 -0.42232,0.56335 -1.01442,0 -3.72479,5.57334 -3.32447,6.83609 0.1233,0.38895 -0.14203,0.70719 -0.58964,0.70719 -0.73356,0 -3.5771,7.7887 -4.37967,11.99631 -0.17582,0.92173 -0.41676,1.88803 -0.53543,2.14733 -0.11867,0.2593 -0.29822,0.89577 -0.39901,1.41437 -0.10078,0.5186 -0.50195,1.79153 -0.89148,2.82873 -3.28018,8.73406 -3.33417,8.95768 -2.16631,8.97208 0.87221,0.0107 0.88957,0.19346 0.068,0.71607 -0.92961,0.59135 -4.80983,9.1229 -4.81389,10.58441 -0.004,1.20768 -5.5824,11.97966 -7.04814,13.60847 -0.90755,1.00852 -1.65009,2.18345 -1.65009,2.61095 0,0.94261 -10.35929,11.07565 -14.43804,14.12271 -3.77194,2.81786 -10.350245,8.51555 -11.235599,9.73153 -1.421462,1.95229 -0.06626,8.87066 2.206984,11.26675 l 2.251188,2.37287 89.276497,0.0163 89.27649,0.0163 2.02193,-2.83953 z"
     id="path931"
     inkscape:connector-curvature="0" /><path
     style="opacity:1;vector-effect:none;fill:#b3b3b3;fill-opacity:1;stroke:none;stroke-width:18.87199974;stroke-linecap:butt;stroke-linejoin:round;stroke-miterlimit:4;stroke-dasharray:none;stroke-dashoffset:0;stroke-opacity:1"
     d="m 252.8378,242.49225 c -2.82827,-1.80182 -5.69236,-3.27604 -6.36464,-3.27604 -0.67228,0 -1.22233,-0.44936 -1.22233,-0.99856 0,-0.54921 -0.42431,-0.73632 -0.94291,-0.41581 -0.5186,0.32052 -0.94291,0.14149 -0.94291,-0.39784 0,-0.53933 -1.16265,-1.2724 -2.58367,-1.62906 -1.42101,-0.35664 -3.11067,-1.17547 -3.7548,-1.81959 -0.64412,-0.64413 -1.7091,-1.3507 -2.36661,-1.57017 -3.84181,-1.28234 29.86499,-37.33646 48.82769,-52.22803 21.598,-16.96109 66.97826,-39.75823 101.50403,-50.99138 4.3035,-1.40017 8.08975,-2.92763 8.41387,-3.39437 0.33716,-0.48551 0.84396,-0.43661 1.18442,0.11428 0.83503,1.35111 0.27942,7.72045 -0.67367,7.72274 -0.43217,0.001 -0.61201,0.52313 -0.39966,1.16019 0.64233,1.92699 -2.16053,4.06932 -11.30814,8.64322 -4.79705,2.39858 -8.72191,4.71039 -8.72191,5.13735 0,0.42696 -0.5673,0.7763 -1.26065,0.7763 -1.84748,0 -11.94009,5.9503 -11.94009,7.03952 0,0.51114 -0.40884,0.67668 -0.90852,0.36786 -0.49968,-0.30882 -1.77261,0.3026 -2.82873,1.35871 -1.05612,1.05612 -2.08181,1.81414 -2.27934,1.68449 -0.70898,-0.46536 -14.88959,8.99027 -15.37337,10.25096 -0.27201,0.70887 -0.87741,1.05224 -1.34534,0.76305 -0.46792,-0.28919 -1.10438,0.13512 -1.41436,0.94291 -0.30998,0.80779 -0.92957,1.24253 -1.37687,0.96608 -0.4473,-0.27644 -1.35352,0.36246 -2.01383,1.41979 -0.66031,1.05732 -1.71388,1.9224 -2.34126,1.9224 -0.62739,0 -1.57319,0.74254 -2.10179,1.65009 -0.5286,0.90756 -0.97399,1.30461 -0.98976,0.88235 -0.0396,-1.06163 -14.17232,10.5775 -14.17232,11.67178 0,0.48528 -0.52661,0.88234 -1.17024,0.88234 -1.2545,0 -4.59239,3.06661 -18.5496,17.04205 -15.00396,15.02354 -17.17477,17.41017 -16.47357,18.11138 0.37243,0.37243 0.20989,0.67714 -0.36121,0.67714 -0.57109,0 -4.55125,4.24309 -8.84479,9.4291 -4.29355,5.186 -8.24618,9.41823 -8.78363,9.40496 -0.53745,-0.0133 -3.29122,-1.49835 -6.11949,-3.30019 z"
     id="path933"
     inkscape:connector-curvature="0" /><path
     style="opacity:1;vector-effect:none;fill:#b3b3b3;fill-opacity:1;stroke:none;stroke-width:18.87199974;stroke-linecap:butt;stroke-linejoin:round;stroke-miterlimit:4;stroke-dasharray:none;stroke-dashoffset:0;stroke-opacity:1"
     d="m 288.9392,285.97851 c -0.60492,-0.68988 -2.25675,-3.53783 -3.67075,-6.32877 -3.18496,-6.28643 -9.99742,-17.22299 -10.99218,-17.64654 -1.55514,-0.66218 -0.59678,-2.9962 3.22387,-7.85149 2.17911,-2.76922 4.40674,-5.53656 4.95028,-6.14965 0.54354,-0.61308 2.68549,-3.08844 4.75989,-5.5008 4.68709,-5.4507 35.84641,-36.51873 41.12193,-41.00144 2.13611,-1.81511 4.85817,-4.14881 6.04902,-5.18601 1.19084,-1.0372 3.09086,-2.52228 4.22226,-3.30018 1.93747,-1.33212 4.68209,-3.46338 7.26313,-5.63998 0.62636,-0.52822 1.58106,-0.96039 2.12155,-0.96039 0.54048,0 0.9827,-0.35749 0.9827,-0.79443 0,-0.43694 1.48509,-1.5942 3.30019,-2.5717 1.8151,-0.97749 3.30018,-2.10508 3.30018,-2.50575 0,-0.40067 0.63646,-0.72849 1.41437,-0.72849 0.7779,0 1.41436,-0.42431 1.41436,-0.94291 0,-0.5186 0.63646,-0.94291 1.41436,-0.94291 0.77791,0 1.41437,-0.42431 1.41437,-0.94291 0,-0.5186 0.63646,-0.94291 1.41436,-0.94291 0.7779,0 1.41437,-0.6615 1.41437,-1.47001 0,-0.80851 0.42181,-1.20932 0.93736,-0.89069 0.51555,0.31862 2.35891,-0.50495 4.09637,-1.83017 1.73745,-1.32522 3.47634,-2.4095 3.86419,-2.4095 0.38785,0 1.78403,-0.84861 3.10261,-1.88582 3.0392,-2.39063 4.61988,-2.39063 5.24505,0 0.27124,1.03721 0.17668,1.88582 -0.21013,1.88582 -1.04423,0 -3.00147,4.7172 -2.37668,5.72812 0.29649,0.47974 0.18121,0.87225 -0.25618,0.87225 -1.14445,0 -3.78637,4.77581 -4.17285,7.54328 -0.18105,1.2965 -0.88497,3.01934 -1.56426,3.82854 -3.0691,3.65601 -7.59154,13.03345 -6.49958,13.47706 0.62386,0.25344 0.3667,0.4943 -0.57146,0.53525 -0.93815,0.0409 -1.4435,0.49875 -1.12299,1.01735 0.32052,0.5186 0.18488,0.94291 -0.30141,0.94291 -0.48629,0 -1.42983,1.379 -2.09676,3.06445 -0.66693,1.68545 -1.80197,3.75952 -2.52232,4.60904 -0.72035,0.84952 -1.37723,2.44068 -1.45973,3.53591 -0.0825,1.09523 -0.69617,1.99133 -1.36371,1.99133 -0.66754,0 -1.21371,0.63647 -1.21371,1.41437 0,0.7779 -0.42431,1.41436 -0.94291,1.41436 -0.5186,0 -0.94291,0.44243 -0.94291,0.98317 0,0.54075 -1.69724,3.28064 -3.77164,6.08865 -2.0744,2.80802 -3.77164,5.36606 -3.77164,5.68455 0,0.31849 -0.53038,1.13324 -1.17863,1.81055 -0.64825,0.67731 -1.81511,2.19441 -2.59301,3.37133 -0.7779,1.17692 -2.47513,3.3234 -3.77163,4.76996 -1.29651,1.44656 -4.26667,4.84792 -6.60037,7.55857 -5.32424,6.18425 -12.98032,13.81364 -21.19569,21.1218 -3.49786,3.11161 -8.11558,7.31215 -10.26159,9.33455 -3.63502,3.42562 -8.94888,7.2012 -10.03075,7.12698 -0.2593,-0.0178 -0.96639,-0.5968 -1.5713,-1.2867 z"
     id="path935"
     inkscape:connector-curvature="0" /><path
     style="opacity:1;vector-effect:none;fill:#b3b3b3;fill-opacity:1;stroke:none;stroke-width:18.87199974;stroke-linecap:butt;stroke-linejoin:round;stroke-miterlimit:4;stroke-dasharray:none;stroke-dashoffset:0;stroke-opacity:1"
     d="m 243.42917,313.9418 c -0.6498,-1.42615 -1.18649,-2.80515 -1.19266,-3.06445 -0.0574,-2.41435 -11.88721,-19.63938 -14.77268,-21.51006 -1.34994,-0.87518 -3.20398,-2.33377 -4.12009,-3.24132 -0.91611,-0.90755 -2.30212,-1.6501 -3.08002,-1.6501 -0.7779,0 -1.41436,-0.44935 -1.41436,-0.99855 0,-0.54921 -0.38807,-0.75872 -0.86238,-0.46558 -0.47431,0.29314 -1.00469,0.13784 -1.17864,-0.34509 -0.17394,-0.48294 -0.90518,-1.01597 -1.62497,-1.18451 -3.33379,-0.78064 -8.91638,-4.30196 -9.13024,-5.75907 -0.1307,-0.89056 0.17416,-1.6192 0.67748,-1.6192 0.50332,0 0.65289,-0.42431 0.33237,-0.94291 -0.32051,-0.5186 -0.18997,-0.94291 0.2901,-0.94291 0.48006,0 1.77296,-2.01547 2.87312,-4.47882 1.10015,-2.46336 3.27247,-6.70645 4.82739,-9.4291 1.55491,-2.72265 2.59889,-4.95028 2.31995,-4.95028 -0.27894,0 0.67382,-1.0945 2.11724,-2.43221 1.80471,-1.67256 3.36603,-2.30552 4.99886,-2.02657 3.44549,0.58863 5.13952,1.08881 5.67463,1.67548 1.53903,1.68733 6.43695,4.51824 6.94253,4.01266 0.33041,-0.33041 0.60725,3.5e-4 0.61519,0.73504 0.0119,1.09987 0.17587,1.08599 0.92847,-0.0786 0.78113,-1.20871 0.91613,-1.17444 0.92847,0.23573 0.008,0.90755 0.55115,1.65009 1.20713,1.65009 1.83981,0 16.71683,13.19726 16.7271,14.83846 0.002,0.39575 1.48756,2.33433 3.30019,4.30794 1.81262,1.97361 3.29567,3.98908 3.29567,4.47882 0,0.48974 0.37831,0.89044 0.84069,0.89044 0.46239,0 1.10693,1.06077 1.43233,2.35727 0.34364,1.36917 1.27579,2.36333 2.22377,2.37171 1.39852,0.0124 1.42969,0.14527 0.21776,0.92847 -1.22423,0.79116 -1.20376,0.91598 0.1523,0.92848 0.9554,0.009 1.46848,0.65825 1.31504,1.66453 -0.13839,0.90755 0.53562,3.12889 1.4978,4.93631 2.31298,4.34487 2.2093,5.50231 -0.60786,6.7859 -1.2965,0.59072 -2.35728,1.62908 -2.35728,2.30746 0,0.68586 -0.60247,1.00223 -1.35709,0.71266 -0.75899,-0.29126 -1.87197,0.30367 -2.52534,1.34987 -0.64253,1.02885 -1.68232,1.67337 -2.31066,1.43225 -0.62834,-0.24111 -2.14452,0.54377 -3.36929,1.74418 -1.22478,1.20041 -3.07484,2.32232 -4.11125,2.49314 -1.03641,0.17082 -3.65717,1.33767 -5.82392,2.59301 -2.16675,1.25533 -4.11411,2.28242 -4.32747,2.28242 -0.21336,0 -0.91958,-1.16685 -1.56938,-2.59301 z"
     id="path937"
     inkscape:connector-curvature="0" /><path
     style="opacity:1;vector-effect:none;fill:#808080;fill-opacity:1;stroke:none;stroke-width:18.87199974;stroke-linecap:butt;stroke-linejoin:round;stroke-miterlimit:4;stroke-dasharray:none;stroke-dashoffset:0;stroke-opacity:1"
     d="m 288.89062,285.18306 c -0.49933,-0.64825 -3.12903,-5.1035 -5.84377,-9.90056 -2.71475,-4.79705 -5.35337,-8.72191 -5.8636,-8.72191 -0.51023,0 -0.6636,-0.42731 -0.34083,-0.94957 0.32278,-0.52227 -0.074,-1.20319 -0.88184,-1.51317 -0.8078,-0.30997 -1.23396,-0.94345 -0.94703,-1.4077 0.28693,-0.46426 -0.13982,-0.84411 -0.94833,-0.84411 -0.8085,0 -1.47001,-0.66151 -1.47001,-1.47001 0,-0.80851 0.37985,-1.23525 0.84411,-0.94833 0.69832,0.43159 1.69252,-1.02031 2.218,-3.23912 0.0614,-0.2593 1.11714,-1.26237 2.34607,-2.22904 1.22893,-0.96667 2.0143,-1.9777 1.74528,-2.24672 -0.26903,-0.26903 0.57959,-1.3298 1.88582,-2.35728 1.30622,-1.02747 2.17243,-2.07066 1.92491,-2.31818 -0.90798,-0.90798 43.55916,-44.46755 53.15368,-52.06881 5.4453,-4.31405 9.78776,-8.23612 9.6499,-8.71572 -0.13786,-0.4796 0.28645,-0.75293 0.94291,-0.60739 1.81634,0.40267 12.13166,-6.8024 11.41016,-7.96981 -0.39736,-0.64295 -0.0403,-0.7874 0.97933,-0.39615 0.99249,0.38086 1.80868,0.0843 2.1393,-0.77725 0.29401,-0.76618 0.86995,-1.18578 1.27987,-0.93243 0.40992,0.25334 0.99892,-0.2003 1.3089,-1.00809 0.30998,-0.80779 0.98735,-1.20682 1.50527,-0.88673 0.51791,0.32009 1.98028,-0.45664 3.24969,-1.72605 1.26942,-1.26942 2.5459,-2.07016 2.83663,-1.77943 0.29074,0.29073 0.52861,0.009 0.52861,-0.62711 0,-0.63564 0.40883,-0.90304 0.90852,-0.59422 0.49967,0.30883 1.70188,-0.19652 2.67157,-1.12299 2.28682,-2.1849 3.5349,-2.39376 4.84821,-0.81132 0.80968,0.97561 0.70365,1.64656 -0.44114,2.79135 -0.82887,0.82886 -1.24278,1.93459 -0.91981,2.45717 0.32298,0.52258 0.11283,0.95014 -0.46699,0.95014 -0.57981,0 -0.82581,0.36954 -0.54667,0.82121 0.27914,0.45166 -0.35974,1.82117 -1.41974,3.04336 -1.06001,1.22219 -2.41213,4.03497 -3.00473,6.25062 -0.59259,2.21565 -1.43879,4.02846 -1.88043,4.02846 -0.44165,0 -0.54076,0.42431 -0.22025,0.94291 0.32052,0.5186 0.14055,0.94291 -0.39992,0.94291 -1.26482,0 -5.96488,9.2275 -5.2715,10.34941 0.28879,0.46728 -0.0628,1.19391 -0.78137,1.61474 -1.34051,0.78508 -4.83487,6.89404 -3.94343,6.89404 0.27262,0 -0.36843,0.8641 -1.42454,1.92022 -1.05612,1.05611 -1.66754,2.32904 -1.35872,2.82873 0.30882,0.49968 0.0871,0.90851 -0.49271,0.90851 -0.57981,0 -0.79012,0.42731 -0.46734,0.94957 0.32278,0.52226 -0.0741,1.20319 -0.88185,1.51317 -0.80779,0.30998 -1.23395,0.94345 -0.94702,1.4077 0.28693,0.46426 0.11955,0.84411 -0.37196,0.84411 -0.4915,0 -4.09005,4.77348 -7.99679,10.60774 -8.70705,13.00297 -23.02308,28.93722 -38.22737,42.54842 -6.29964,5.63956 -11.45389,10.69592 -11.45389,11.23634 0,0.54042 -0.26898,0.7136 -0.59773,0.38486 -0.32874,-0.32875 -1.65889,0.237 -2.95588,1.25721 -2.72656,2.14471 -4.3296,2.33798 -5.60955,0.6763 z"
     id="path939"
     inkscape:connector-curvature="0" /><path
     style="opacity:1;vector-effect:none;fill:#808080;fill-opacity:1;stroke:none;stroke-width:18.87199974;stroke-linecap:butt;stroke-linejoin:round;stroke-miterlimit:4;stroke-dasharray:none;stroke-dashoffset:0;stroke-opacity:1"
     d="m 238.65046,493.81392 c -2.3337,-0.42383 -5.26108,-0.53805 -6.50528,-0.25382 -1.69699,0.38766 -2.07245,0.20977 -1.50275,-0.71201 0.60142,-0.97311 -0.1642,-1.10219 -3.67962,-0.62034 -3.20946,0.4399 -4.25499,0.31063 -3.77458,-0.4667 0.47985,-0.77642 -0.4891,-0.90053 -3.4873,-0.4467 -3.12688,0.4733 -3.80262,0.3731 -2.73739,-0.40594 1.08553,-0.7939 0.58736,-0.9196 -2.14268,-0.54069 -2.42267,0.33625 -3.35526,0.1672 -2.92431,-0.53008 0.41831,-0.67686 -0.21356,-0.862 -1.8647,-0.54636 -1.37358,0.26257 -2.49741,0.16715 -2.49741,-0.21207 0,-0.73107 -10.86461,-3.29871 -13.11254,-3.09889 -0.7294,0.0649 -1.95724,-0.51319 -2.72855,-1.2845 -0.85912,-0.85911 -2.26306,-1.18637 -3.62411,-0.84477 -1.34847,0.33845 -2.22173,0.1403 -2.22173,-0.50414 0,-0.58396 -0.60905,-0.82803 -1.35344,-0.54239 -0.7444,0.28566 -1.49303,0.10061 -1.66364,-0.4112 -0.1706,-0.51182 -1.3934,-1.04606 -2.71731,-1.18722 -1.32391,-0.14115 -3.4277,-0.97149 -4.67508,-1.84519 -1.24738,-0.87369 -3.14946,-1.58853 -4.22685,-1.58853 -1.07739,0 -2.36198,-0.38184 -2.85465,-0.84852 -1.60272,-1.51817 -14.73101,-6.70529 -15.60445,-6.16547 -0.46713,0.2887 -0.84933,0.0651 -0.84933,-0.49698 0,-0.56205 -1.04014,-1.41736 -2.31143,-1.90071 -1.27129,-0.48333 -4.04508,-1.97321 -6.16399,-3.31081 -2.1189,-1.33761 -4.26108,-2.17952 -4.76039,-1.87094 -0.49931,0.30859 -0.90783,0.0867 -0.90783,-0.49313 0,-0.57981 -0.39823,-0.80808 -0.88496,-0.50727 -0.48673,0.30081 -1.22927,-0.0317 -1.65009,-0.73883 -1.01771,-1.71021 -5.94333,-4.85069 -5.97982,-3.81262 -0.0157,0.4486 -0.45129,0.0907 -0.96785,-0.79531 -0.53285,-0.914 -1.55695,-1.37385 -2.36715,-1.06296 -0.7854,0.30139 -1.30456,0.17769 -1.1537,-0.27488 0.15086,-0.45257 -0.023,-0.95133 -0.38643,-1.10834 -0.36339,-0.157 -1.9977,-1.53439 -3.63178,-3.06085 -1.63408,-1.52646 -3.35223,-2.53982 -3.8181,-2.25189 -0.46588,0.28793 -0.84705,0.1503 -0.84705,-0.30585 0,-0.45615 -2.82153,-3.0904 -6.27008,-5.85389 -11.823434,-9.4747 -22.513203,-19.60665 -31.454596,-29.81322 -4.922146,-5.61861 -10.064527,-11.37994 -11.427516,-12.80295 -1.362988,-1.42301 -2.305202,-2.76026 -2.093807,-2.97165 0.211394,-0.21139 -0.859142,-1.71552 -2.378966,-3.34249 -1.519826,-1.62698 -2.587061,-2.95814 -2.371635,-2.95814 0.858978,0 -4.592368,-7.43467 -5.787666,-7.89335 -0.704611,-0.27038 -1.224707,-1.25692 -1.15577,-2.19232 0.140909,-1.91194 -2.831649,-6.88671 -4.115,-6.88671 -0.458955,0 -0.750399,-0.31823 -0.647651,-0.70718 0.350398,-1.32643 -1.254125,-4.95028 -2.191822,-4.95028 -0.514259,0 -0.682344,-0.40883 -0.373522,-0.90852 0.308822,-0.49967 -0.267242,-1.73724 -1.280141,-2.75015 -1.0129,-1.0129 -1.594122,-2.08914 -1.291605,-2.39167 0.302516,-0.30251 0.02996,-0.55002 -0.605679,-0.55002 -0.63564,0 -0.917136,-0.38602 -0.625548,-0.85783 0.75305,-1.21845 -0.447318,-3.95043 -1.460578,-3.32421 -0.464259,0.28693 -0.844107,-0.77627 -0.844107,-2.36268 0,-1.58641 -0.808209,-3.69259 -1.796019,-4.6804 -0.98781,-0.98781 -1.730351,-2.57897 -1.650092,-3.53591 0.08643,-1.03051 -0.383749,-1.62741 -1.153185,-1.46401 -0.903636,0.1919 -1.138234,-0.33932 -0.770638,-1.745 0.642232,-2.4559 -1.13472,-6.71607 -2.459754,-5.89715 -0.583389,0.36055 -0.747151,-0.19998 -0.42185,-1.44394 0.29244,-1.11829 0.101728,-2.03326 -0.423805,-2.03326 -0.525534,0 -0.711282,-0.63646 -0.412774,-1.41436 0.298509,-0.7779 0.08635,-1.41437 -0.471455,-1.41437 -0.557808,0 -0.769963,-0.63646 -0.471455,-1.41436 0.298509,-0.7779 0.08635,-1.41437 -0.471455,-1.41437 -0.557808,0 -0.761506,-0.6585 -0.452661,-1.46334 0.351913,-0.91707 0.175867,-1.22498 -0.471592,-0.82483 -0.686435,0.42425 -0.824132,-0.02 -0.41033,-1.32375 0.682151,-2.14926 -1.200265,-9.58881 -2.426239,-9.58881 -0.420237,0 -0.526547,-0.61897 -0.236246,-1.37548 0.290301,-0.75652 -0.01928,-2.98414 -0.687948,-4.95028 -0.668673,-1.96613 -1.097135,-4.36372 -0.952138,-5.32796 0.144998,-0.96424 -0.123271,-1.51404 -0.596152,-1.22178 -0.472881,0.29225 -0.908454,-1.60532 -0.96794,-4.21685 -0.05948,-2.61152 -0.593261,-5.33273 -1.186168,-6.04714 -0.637415,-0.76804 -0.820615,-2.47085 -0.448237,-4.16627 0.346377,-1.57705 0.262676,-2.86736 -0.186001,-2.86736 -1.093506,0 -1.091487,0.038 -1.411503,-26.54737 -0.153908,-12.78595 0.03394,-23.05316 0.417435,-22.81604 0.383497,0.23714 0.701808,-2.03092 0.707357,-5.0401 0.01249,-6.77099 0.445298,-10.95934 1.270482,-12.29451 0.347158,-0.56172 0.370195,-1.70146 0.05119,-2.53276 -0.319001,-0.8313 -0.102656,-2.08663 0.480768,-2.78962 0.583424,-0.70297 1.16128,-3.02907 1.284126,-5.1691 0.122846,-2.14003 0.586984,-3.89316 1.031419,-3.89585 0.444434,-0.003 0.569043,-0.62776 0.276908,-1.38905 -0.292136,-0.76129 -0.09645,-1.65283 0.434855,-1.9812 0.531306,-0.32836 0.743461,-1.17698 0.471455,-1.88582 -0.272006,-0.70883 -0.05985,-1.55745 0.471455,-1.88582 0.531305,-0.32836 0.74346,-1.17698 0.471455,-1.88582 -0.272006,-0.70883 -0.0544,-1.56082 0.483574,-1.89331 0.550425,-0.34018 0.705056,-1.69253 0.353631,-3.09271 -0.343474,-1.36852 -0.296542,-2.16026 0.104295,-1.75942 0.799421,0.79942 9.009936,-21.87523 8.323324,-22.98619 -0.233417,-0.37768 0.05104,-0.84516 0.632119,-1.03885 0.581082,-0.1937 1.18965,-1.56503 1.352374,-3.0474 0.162724,-1.48238 0.856788,-3.05088 1.542365,-3.48557 0.685575,-0.43468 0.822192,-0.80333 0.303592,-0.81921 -0.56045,-0.0172 -0.527599,-0.30987 0.081,-0.72162 1.365471,-0.92385 12.042792,-20.96531 11.169505,-20.96531 -0.375326,0 0.436233,-1.03672 1.803464,-2.30383 1.407556,-1.30448 2.257834,-2.8981 1.960166,-3.67381 -0.303315,-0.79042 0.387609,-2.00969 1.633254,-2.88217 1.187429,-0.83171 1.746319,-1.52509 1.241976,-1.54087 -0.504342,-0.0157 -0.251305,-0.41815 0.562303,-0.89417 1.347018,-0.78812 9.918381,-12.27789 9.159296,-12.27789 -0.178928,0 2.631084,-3.2884 6.24447,-7.30755 9.822718,-10.925767 28.298133,-28.754636 37.098533,-35.800265 4.27845,-3.425346 7.779,-6.583719 7.779,-7.018607 0,-0.434889 0.35758,-0.684629 0.79462,-0.554979 1.15171,0.341658 10.5203,-5.855633 10.5203,-6.959138 0,-0.51214 0.42731,-0.667073 0.94956,-0.344297 0.52227,0.322777 1.19385,-0.0497 1.4924,-0.827725 0.29856,-0.778024 1.1406,-1.185203 1.87122,-0.904842 0.73061,0.280362 1.58951,-0.17074 1.90866,-1.002447 0.31916,-0.831708 1.35096,-1.512196 2.29288,-1.512196 0.94193,0 3.01808,-1.098491 4.61367,-2.441093 1.59559,-1.342601 2.90107,-2.182596 2.90107,-1.866656 0,0.825153 7.87991,-3.284109 8.70748,-4.540831 0.38101,-0.578584 0.69925,-0.749834 0.70719,-0.380553 0.0205,0.956015 15.39112,-5.744117 16.20743,-7.064926 0.37226,-0.602337 0.9456,-0.826395 1.27408,-0.497908 0.7827,0.7827 9.06037,-2.042473 8.52456,-2.909435 -0.2262,-0.365997 1.07499,-0.665448 2.89155,-0.665448 1.81654,0 3.62637,-0.523543 4.02184,-1.163429 0.39547,-0.639884 1.37295,-0.912499 2.17217,-0.605809 0.79922,0.30669 2.04327,-0.03253 2.76457,-0.753822 0.72129,-0.721292 2.76789,-1.31144 4.54801,-1.31144 1.78012,0 3.38658,-0.449984 3.5699,-0.999964 0.18333,-0.54998 1.1616,-0.783365 2.17393,-0.518634 1.01234,0.264732 1.84061,0.0339 1.84061,-0.512951 0,-0.546855 0.74254,-1.022166 1.65009,-1.056246 2.66415,-0.100044 7.30755,-0.734291 7.30755,-0.998147 0,-0.470596 5.70815,-0.977232 10.22466,-0.907506 2.51196,0.03878 4.35571,-0.271553 4.09722,-0.68963 -0.25848,-0.418076 12.38945,-0.760139 28.10652,-0.760139 15.90168,0 28.3533,0.362844 28.07327,0.818064 -0.27679,0.449934 1.24987,0.650876 3.39258,0.446537 2.14269,-0.204339 3.89581,0.01344 3.89581,0.483947 0,0.470509 1.49458,0.612933 3.32131,0.316497 2.28195,-0.370309 3.12129,-0.215321 2.68212,0.495269 -0.43969,0.711422 0.30413,0.845577 2.38301,0.4298 1.66222,-0.332444 2.80647,-0.255358 2.54279,0.171302 -0.57213,0.925718 8.6647,3.206834 9.89825,2.44446 0.47087,-0.291017 1.79991,0.131923 2.95341,0.939867 1.15351,0.807945 3.7001,1.46899 5.65912,1.46899 1.959,0 3.56183,0.385009 3.56183,0.855576 0,0.470566 4.13702,2.216368 9.19337,3.879558 5.05635,1.66319 10.39599,3.641279 11.86587,4.395752 1.46988,0.754474 3.89504,1.406531 5.38926,1.449015 1.49422,0.04249 2.4893,0.445299 2.21128,0.895142 -0.57305,0.927218 5.35201,3.681373 6.45426,3.000144 0.39409,-0.243559 0.71653,0.03156 0.71653,0.611369 0,0.579813 0.42431,0.791968 0.94291,0.471455 0.5186,-0.320513 0.94291,-0.133399 0.94291,0.415807 0,0.549207 0.31823,0.905495 0.70718,0.791752 0.38895,-0.113742 2.48601,0.987209 4.66013,2.446559 2.17412,1.45935 4.40174,2.375989 4.95027,2.036976 0.54854,-0.339012 0.99734,-0.208223 0.99734,0.290641 0,1.023979 18.94106,12.954234 20.03683,12.620433 0.38895,-0.118485 0.70718,0.233924 0.70718,0.78313 0,0.549206 0.34268,0.78677 0.76151,0.527917 0.41883,-0.258852 1.53904,0.564725 2.48935,1.830172 0.95031,1.265446 2.24142,2.300812 2.86912,2.300812 0.62771,0 10.09861,8.910497 21.04645,19.801105 10.94784,10.890608 19.65852,19.801105 19.35707,19.801105 -0.69888,0 6.09894,8.55649 8.08514,10.17687 0.82197,0.67057 1.49449,1.57184 1.49449,2.00283 0,1.39513 6.23433,10.45013 7.19487,10.45013 0.51214,0 0.66892,0.42431 0.34841,0.94291 -0.32051,0.5186 -0.10836,0.94291 0.47145,0.94291 0.57982,0 0.80153,0.40884 0.49271,0.90853 -0.30882,0.49967 0.24119,1.71119 1.22225,2.69225 0.98106,0.98106 2.04089,2.80829 2.35518,4.06053 0.31429,1.25222 1.54255,3.31914 2.72947,4.59315 1.18693,1.27402 2.03536,2.5385 1.8854,2.80997 -0.47161,0.85382 2.8744,7.56541 3.77167,7.56541 0.47045,0 0.59312,0.42431 0.27261,0.94291 -0.32052,0.5186 -0.20412,0.94291 0.25866,0.94291 0.46277,0 0.8414,0.61984 0.8414,1.37743 0,2.19794 5.15014,13.70912 6.13351,13.70912 0.49085,0 0.64953,0.39307 0.35261,0.87349 -0.69602,1.12618 3.12305,11.38434 4.23834,11.38434 0.46507,0 0.60756,0.62024 0.31667,1.37831 -0.2909,0.75807 0.18699,2.77354 1.06199,4.47882 0.875,1.70528 1.77016,4.77727 1.98926,6.82664 0.2191,2.04937 0.90908,4.04176 1.5333,4.42755 0.62421,0.38579 0.83267,1.00369 0.46324,1.37313 -0.36943,0.36943 -0.20361,1.23571 0.36851,1.92508 0.57212,0.68936 0.79913,1.88166 0.50446,2.64956 -0.29467,0.76789 -0.12842,1.64792 0.36942,1.95561 0.49786,0.30769 0.64549,1.5942 0.32806,2.85893 -0.31742,1.26471 -0.16772,2.29948 0.33267,2.29948 0.50039,0 0.93967,1.16685 0.97617,2.593 0.0365,1.42616 0.45364,16.59522 0.92696,33.70903 0.49317,17.8314 0.50824,32.08579 0.0353,33.38749 -0.45391,1.2493 -0.91622,5.34346 -1.02736,9.09814 -0.11198,3.78321 -0.58296,6.59358 -1.05644,6.30383 -0.48757,-0.29837 -0.59486,0.77468 -0.24993,2.49938 0.42876,2.1438 0.29174,2.82895 -0.47145,2.35727 -0.76318,-0.47167 -0.90021,0.21348 -0.47145,2.35728 0.42916,2.14581 0.29205,2.82915 -0.4728,2.35644 -0.73081,-0.45166 -0.90632,-0.0122 -0.54577,1.36655 0.2923,1.11778 0.11806,2.28782 -0.38721,2.6001 -0.50528,0.31228 -0.69091,1.16131 -0.41253,1.88676 0.27838,0.72544 0.13747,1.31899 -0.31312,1.31899 -0.96458,0 -3.4472,9.15489 -3.1323,11.55064 0.11928,0.90755 -0.24783,1.65009 -0.8158,1.65009 -0.56797,0 -0.78844,0.63647 -0.48993,1.41437 0.29851,0.7779 0.0864,1.41436 -0.47145,1.41436 -0.55782,0 -0.76997,0.63647 -0.47145,1.41437 0.2985,0.7779 0.14506,1.41436 -0.34099,1.41436 -0.48605,0 -0.63949,0.63647 -0.34098,1.41437 0.29851,0.7779 0.11276,1.41436 -0.41277,1.41436 -0.52553,0 -0.71625,0.91497 -0.42381,2.03326 0.33627,1.28591 0.1683,1.80867 -0.45697,1.42223 -1.13102,-0.69901 -6.36587,10.89009 -6.15909,13.63521 0.0733,0.97212 -0.28984,1.7675 -0.80682,1.7675 -0.51697,0 -0.67772,0.42431 -0.3572,0.94291 0.32051,0.5186 0.10836,0.94291 -0.47146,0.94291 -0.57981,0 -0.80096,0.40976 -0.49144,0.91056 0.62915,1.01799 -2.91736,8.51853 -4.02785,8.51853 -0.91547,0 -4.51891,6.71204 -4.18203,7.78977 0.14098,0.45099 -1.22516,2.55076 -3.03586,4.66616 -1.8107,2.11539 -3.06785,4.20914 -2.79367,4.65277 0.27417,0.44362 0.0491,0.80659 -0.50005,0.80659 -0.54921,0 -0.99856,0.42108 -0.99856,0.93573 0,0.51466 -0.9547,2.03375 -2.12155,3.37574 -1.16685,1.342 -2.17459,2.83031 -2.23941,3.30735 -0.0649,0.47705 -0.1709,1.31672 -0.23573,1.86593 -0.0649,0.5492 -0.4799,0.77481 -0.92239,0.50132 -0.73119,-0.4519 -7.54611,8.05954 -6.93094,8.65637 0.4451,0.43182 -1.35157,3.219 -2.0159,3.12723 -0.3433,-0.0474 -6.6698,6.12055 -14.05888,13.70659 -7.38905,7.58604 -17.67775,17.1779 -22.86376,21.31525 -5.186,4.13735 -9.97775,8.22086 -10.64832,9.07449 -0.67057,0.85362 -1.33896,1.33989 -1.48531,1.08059 -0.4397,-0.77905 -12.00615,6.69522 -12.54865,8.10896 -0.27634,0.72012 -0.85219,1.09314 -1.27969,0.82894 -0.83232,-0.5144 -21.91284,10.77446 -22.44269,12.01833 -0.17394,0.40834 -0.67519,0.52062 -1.11387,0.24949 -0.96653,-0.59735 -7.52751,2.41402 -7.52751,3.45498 0,0.40628 -0.58175,0.51544 -1.29278,0.24259 -0.71103,-0.27284 -1.93345,0.14457 -2.71648,0.9276 -0.78303,0.78303 -1.61756,1.22983 -1.85449,0.99289 -0.72284,-0.72283 -6.39407,1.58285 -6.39407,2.59954 0,0.52335 -0.63647,0.70733 -1.41437,0.40881 -0.7779,-0.29851 -1.41436,-0.0864 -1.41436,0.47146 0,0.55781 -0.63647,0.76997 -1.41437,0.47145 -0.7779,-0.29851 -1.41436,-0.0864 -1.41436,0.47145 0,0.55782 -0.66018,0.76087 -1.46708,0.45123 -0.80688,-0.30963 -3.03451,0.1326 -4.95027,0.98272 -1.91576,0.85013 -3.90751,1.60175 -4.42611,1.67028 -4.26731,0.5639 -8.95765,1.76082 -8.95765,2.28588 0,0.35215 -1.74544,0.68603 -3.87875,0.74198 -2.13332,0.0559 -4.21191,0.64076 -4.61911,1.29962 -0.48497,0.78468 -1.76526,0.99294 -3.7114,0.60371 -1.65549,-0.3311 -2.74143,-0.2227 -2.45249,0.2448 0.28991,0.46911 -1.20806,0.60744 -3.39767,0.31375 -2.89236,-0.38794 -3.73454,-0.23136 -3.22138,0.59894 0.48836,0.79019 0.041,0.97839 -1.50575,0.63338 -2.11056,-0.47075 -32.09876,0.81292 -39.91695,1.7087 -2.0744,0.23768 -5.68103,0.0853 -8.01473,-0.33846 z m 39.19182,-84.77516 c -0.28693,-0.46425 0.0901,-1.07887 0.83784,-1.3658 2.07988,-0.79813 3.75188,-8.00662 2.42075,-10.43652 -2.84157,-5.18712 -1.90767,-5.08146 -47.93804,-5.42366 -23.42581,-0.17415 -42.59427,-0.40196 -42.59658,-0.50623 -0.002,-0.10427 2.8599,-1.78032 6.36045,-3.72455 25.12801,-13.95627 42.81599,-30.352 45.00462,-41.71667 0.19741,-1.02506 0.83253,-2.74868 1.41137,-3.83025 0.57884,-1.08158 0.83922,-2.3115 0.57862,-2.73316 -0.45696,-0.73936 11.78913,-8.14121 23.4879,-14.19669 9.40889,-4.87019 30.09349,-17.99167 32.03514,-20.32179 0.53169,-0.63806 2.51576,-2.0824 4.40906,-3.20964 1.89328,-1.12724 3.68328,-2.67741 3.97776,-3.44482 0.29448,-0.7674 1.10869,-1.39528 1.80934,-1.39528 0.70066,0 2.15651,-0.95469 3.23521,-2.12155 1.0787,-1.16685 2.96617,-2.97016 4.19436,-4.00736 5.45371,-4.60564 24.38995,-23.07861 29.42137,-28.70159 5.64605,-6.30989 17.14532,-21.29753 19.54008,-25.46771 0.72936,-1.2701 2.08507,-3.17104 3.0127,-4.22433 0.92761,-1.05329 1.92831,-2.87821 2.22376,-4.05538 0.29545,-1.17718 0.94054,-2.14031 1.43353,-2.14031 0.49298,0 0.6341,-0.42431 0.31358,-0.94291 -0.32051,-0.5186 -0.18289,-0.94291 0.30583,-0.94291 0.48872,0 1.14908,-0.74254 1.46745,-1.65009 0.31837,-0.90755 1.61143,-3.34733 2.87346,-5.42173 10.46289,-17.19795 28.47713,-59.48005 34.95011,-82.03315 1.3396,-4.66741 2.86285,-9.75912 3.38501,-11.31492 0.52217,-1.5558 1.2012,-5.66243 1.50897,-9.12584 0.53879,-6.06321 0.4584,-6.38844 -2.16452,-8.75637 -2.38524,-2.15335 -3.31056,-2.3986 -7.43865,-1.9715 -4.56755,0.47257 -14.96207,3.04612 -20.74401,5.13595 -1.5558,0.56233 -6.22321,2.11493 -10.37201,3.45022 -7.30158,2.35003 -15.4121,5.26932 -20.27256,7.2969 -1.2965,0.54084 -2.99374,1.09552 -3.77164,1.2326 -0.7779,0.13709 -3.1116,1.06998 -5.186,2.07308 -2.0744,1.00311 -5.25672,2.44159 -7.07183,3.19665 -1.8151,0.75504 -6.4825,2.88536 -10.372,4.73403 -3.88951,1.84868 -8.55691,4.05609 -10.37201,4.90536 -5.69579,2.665 -19.22364,10.00254 -19.75985,10.71777 -0.65223,0.87001 -3.60806,2.73137 -6.64162,4.18241 -3.46766,1.65868 -18.25565,11.75628 -21.16252,14.45027 -1.37906,1.27808 -2.7548,2.32377 -3.05718,2.32377 -1.32752,0 -28.57587,26.85564 -37.78957,37.24494 -3.21943,3.6302 -6.70814,7.49364 -7.75269,8.58542 -1.04455,1.09178 -1.89919,2.42539 -1.89919,2.96357 0,0.5382 -0.63646,1.22276 -1.41436,1.52128 -0.7779,0.2985 -1.41436,1.14712 -1.41436,1.88582 0,0.73868 -0.63647,1.5873 -1.41437,1.88582 -0.7779,0.2985 -1.41436,0.97713 -1.41436,1.50807 0,0.53093 -0.9547,2.04694 -2.12155,3.36892 -1.16685,1.32198 -3.71231,5.03791 -5.65657,8.25763 -1.94426,3.21972 -4.27797,6.88039 -5.18601,8.13483 -0.90804,1.25442 -1.5449,2.63343 -1.41525,3.06445 0.12965,0.43102 -0.14258,0.78367 -0.60496,0.78367 -0.46238,0 -1.09948,1.0311 -1.41578,2.29134 -0.3163,1.26024 -1.12168,2.8514 -1.78974,3.53591 -0.66806,0.68452 -2.81384,4.62938 -4.76839,8.76637 -1.95457,4.13698 -3.86749,7.74361 -4.25094,8.01473 -0.38346,0.27111 -1.87597,2.533 -3.3167,5.02642 -1.44073,2.49341 -3.1176,4.36721 -3.72637,4.16403 -1.55903,-0.52038 -10.41453,3.53744 -16.422,7.52496 -4.79221,3.1809 -18.04878,17.53149 -17.37044,18.80398 0.17395,0.3263 -0.0469,0.85287 -0.49064,1.17016 -0.4438,0.31728 -1.32558,1.63765 -1.95952,2.93415 -0.63393,1.2965 -1.54997,2.99374 -2.03563,3.77164 -2.15073,3.44483 -4.83284,10.38236 -6.19714,16.02946 -0.81439,3.37091 -1.90567,6.88871 -2.42506,7.81737 -0.51939,0.92864 -0.71518,2.05925 -0.43508,2.51246 0.2801,0.45321 0.0373,0.98137 -0.53966,1.17367 -0.57692,0.19231 -1.13924,1.60755 -1.24958,3.14499 -0.21102,2.94009 -0.98633,4.83596 -7.87827,19.26494 -3.33332,6.97864 -5.62128,10.27571 -10.48576,15.11057 -6.59865,6.55849 -11.68567,11.0641 -17.361891,15.37758 -2.591334,1.96921 -3.475342,3.3327 -3.475342,5.36035 0,3.31647 1.502351,7.45591 3.511953,9.6765 1.404385,1.55183 6.94025,1.65181 91.45226,1.65181 52.71182,0 89.7414,-0.34949 89.43571,-0.84411 z"
     id="path941"
     inkscape:connector-curvature="0" /><path
     style="opacity:1;vector-effect:none;fill:#808080;fill-opacity:1;stroke:none;stroke-width:18.87199974;stroke-linecap:butt;stroke-linejoin:round;stroke-miterlimit:4;stroke-dasharray:none;stroke-dashoffset:0;stroke-opacity:1"
     d="m 244.33123,314.6692 c -1.20872,-1.04832 -1.9311,-1.90603 -1.60529,-1.90603 2.30784,0 -8.16897,-16.26152 -14.65658,-22.74912 -2.755,-2.75501 -7.31877,-5.88569 -11.3876,-7.81173 -11.7842,-5.57822 -11.45501,-4.00736 -3.95189,-18.8578 6.53021,-12.92483 6.86839,-13.30882 12.2484,-13.90777 2.4357,-0.27116 6.12891,0.97694 6.12891,2.07123 0,0.46738 0.70607,0.57883 1.56905,0.24768 1.02772,-0.39438 1.34239,-0.23537 0.91208,0.46089 -0.3875,0.62698 0.51594,1.66952 2.20259,2.54172 1.57276,0.81331 2.85956,1.25984 2.85956,0.9923 0,-0.55198 0.89282,0.13387 9.39796,7.21936 3.35377,2.79397 8.5199,8.23486 11.48028,12.09086 2.96038,3.85599 5.81464,7.15495 6.34281,7.331 0.52817,0.17606 0.72796,0.92558 0.44399,1.6656 -0.28398,0.74002 0.16173,1.60569 0.99046,1.9237 0.82873,0.31802 1.2995,0.9136 1.04616,1.32351 -0.25335,0.40992 0.20029,0.99893 1.00809,1.30891 0.80779,0.30997 1.22427,0.95911 0.92551,1.44251 -0.60424,0.97768 1.30636,5.73477 2.30326,5.73477 1.36389,0 0.23697,4.10111 -1.47829,5.37987 -0.99862,0.74448 -1.70959,1.74797 -1.57993,2.22996 0.12965,0.482 -0.18859,0.9294 -0.70719,0.99422 -0.5186,0.0648 -1.38269,0.17091 -1.92021,0.23573 -0.53751,0.0648 -1.31124,0.65819 -1.71939,1.31859 -0.40815,0.6604 -1.72878,1.39075 -2.93473,1.62299 -1.20595,0.23224 -3.00338,1.29249 -3.99428,2.35609 -0.9909,1.06361 -2.20065,1.68723 -2.68833,1.38582 -0.48769,-0.3014 -0.8867,-0.0736 -0.8867,0.5062 0,0.57981 -0.42431,0.79197 -0.94291,0.47145 -0.5186,-0.32051 -0.94291,-0.10836 -0.94291,0.47146 0,0.57981 -0.3901,0.81311 -0.8669,0.51843 -0.47679,-0.29467 -1.53756,0.13491 -2.35727,0.95462 -0.81971,0.81971 -1.49688,1.14184 -1.50482,0.71585 -0.008,-0.426 -0.35684,-0.23505 -0.77533,0.42432 -0.5853,0.9222 -1.26802,0.75901 -2.95856,-0.70719 z"
     id="path943"
     inkscape:connector-curvature="0" /><path
     style="opacity:1;vector-effect:none;fill:#808080;fill-opacity:1;stroke:none;stroke-width:18.87199974;stroke-linecap:butt;stroke-linejoin:round;stroke-miterlimit:4;stroke-dasharray:none;stroke-dashoffset:0;stroke-opacity:1"
     d="m 320.68361,260.43168 c 2.81687,-2.85231 5.54589,-5.18601 6.06449,-5.18601 0.5186,0 -1.3618,2.3337 -4.17867,5.18601 -2.81687,2.8523 -5.54589,5.186 -6.06449,5.186 -0.5186,0 1.3618,-2.3337 4.17867,-5.186 z"
     id="path945"
     inkscape:connector-curvature="0" /><path
     style="opacity:1;vector-effect:none;fill:#808080;fill-opacity:1;stroke:none;stroke-width:18.87199974;stroke-linecap:butt;stroke-linejoin:round;stroke-miterlimit:4;stroke-dasharray:none;stroke-dashoffset:0;stroke-opacity:1"
     d="m 257.50095,244.8689 c -0.72414,-0.44754 -1.61065,-0.63199 -1.97002,-0.40989 -0.35937,0.2221 -0.90702,-0.25709 -1.217,-1.06489 -0.30997,-0.80779 -0.9909,-1.20462 -1.51316,-0.88185 -0.52227,0.32278 -0.94957,0.13752 -0.94957,-0.41168 0,-0.54921 -0.45394,-0.99856 -1.00875,-0.99856 -0.55481,0 -2.78244,-1.18525 -4.95028,-2.63388 -4.41276,-2.94877 -9.23545,-5.32309 -10.30617,-5.07395 -1.5399,0.35831 -0.57779,-3.12727 1.68043,-6.08795 1.31319,-1.72168 2.39892,-3.32793 2.41274,-3.56945 0.0138,-0.24152 1.73195,-2.14595 3.81807,-4.23207 2.08611,-2.08611 3.5212,-4.23262 3.18907,-4.77001 -0.33213,-0.53739 -0.0295,-0.97708 0.6725,-0.97708 0.702,0 7.28176,-6.04641 14.62168,-13.43646 7.33992,-7.39006 14.10994,-13.90242 15.04448,-14.47193 0.93453,-0.5695 2.16134,-1.94599 2.72623,-3.05887 0.56489,-1.11287 1.29718,-1.7533 1.6273,-1.42317 0.8394,0.83939 3.56932,-1.58103 2.93705,-2.60407 -0.28419,-0.45984 0.13013,-0.83607 0.92072,-0.83607 0.79058,0 5.58911,-2.70949 10.66338,-6.02109 10.149,-6.62349 21.63925,-13.12559 35.23675,-19.93977 4.88227,-2.44668 9.1886,-4.92574 9.56961,-5.50902 0.38101,-0.58328 0.69924,-0.73658 0.70718,-0.34067 0.0189,0.94209 6.83803,-1.91263 7.63009,-3.19422 0.33545,-0.54278 0.84806,-0.84455 1.13913,-0.67061 0.69887,0.41766 10.10341,-3.24399 10.10341,-3.93375 0,-0.29407 0.91652,-0.60372 2.0367,-0.6881 1.1202,-0.0844 2.28705,-0.49291 2.59301,-0.90784 0.30596,-0.41492 1.40491,-0.90295 2.44211,-1.08449 1.0372,-0.18154 2.73444,-0.80297 3.77164,-1.38095 1.0372,-0.57798 2.09798,-1.08987 2.35728,-1.13752 3.78331,-0.69531 6.60036,-1.71229 6.60036,-2.38278 0,-0.46112 0.63647,-0.59417 1.41437,-0.29566 0.7779,0.29851 1.41436,0.048 1.41436,-0.55669 0,-0.60469 0.42431,-0.8372 0.94291,-0.51669 0.5186,0.32051 0.94291,0.088 0.94291,-0.51669 0,-0.60469 0.62288,-0.86042 1.38417,-0.56828 0.76129,0.29213 1.63924,0.11845 1.95097,-0.38596 0.31175,-0.50441 0.93248,-0.69111 1.37941,-0.41489 0.44693,0.27622 1.07912,0.071 1.40486,-0.45607 0.32574,-0.52706 1.22465,-0.9583 1.99758,-0.9583 1.08623,0 1.35655,1.06911 1.1905,4.70823 -0.25753,5.64413 -1.17299,6.60558 -11.66476,12.25082 -4.1488,2.23232 -7.75543,4.35795 -8.01473,4.72362 -0.67021,0.94513 -4.92547,3.17091 -6.58326,3.44348 -0.76848,0.12635 -1.54727,0.67978 -1.73062,1.22986 -0.18336,0.55007 -0.72145,0.76029 -1.19576,0.46715 -0.4743,-0.29314 -0.86237,-0.0836 -0.86237,0.46558 0,0.54921 -0.41946,0.99856 -0.93213,0.99856 -0.51267,0 -1.79936,0.74254 -2.8593,1.65009 -1.05995,0.90755 -2.02945,1.43794 -2.15446,1.17864 -0.12501,-0.2593 -1.23628,0.46857 -2.4695,1.61748 -1.23322,1.14892 -2.60227,1.86642 -3.04232,1.59445 -0.44007,-0.27198 -0.80012,-0.0452 -0.80012,0.50406 0,0.5492 -0.63646,0.99856 -1.41436,0.99856 -0.7779,0 -1.41437,0.44935 -1.41437,0.99855 0,0.54921 -0.42731,0.73447 -0.94956,0.41169 -0.52227,-0.32277 -1.20319,0.0741 -1.51318,0.88185 -0.30997,0.80779 -0.94643,1.2321 -1.41436,0.94291 -0.46792,-0.28919 -1.10532,0.13756 -1.41644,0.94833 -0.31112,0.81077 -1.15674,1.47412 -1.87916,1.47412 -0.72241,0 -1.31349,0.40441 -1.31349,0.89868 0,0.49426 -1.379,1.56687 -3.06445,2.38356 -1.68545,0.8167 -5.18601,3.37855 -7.77901,5.693 -2.593,2.31446 -5.24134,4.21202 -5.88519,4.2168 -0.64386,0.005 -1.70062,0.85732 -2.34836,1.89452 -0.64775,1.0372 -1.64198,1.88582 -2.20941,1.88582 -0.56743,0 -2.10653,1.16685 -3.42022,2.593 -1.31369,1.42615 -4.67223,4.38158 -7.46341,6.56762 -6.95217,5.4449 -30.5103,29.5788 -32.35468,33.14543 -0.82416,1.59374 -2.34269,3.34953 -3.37453,3.90175 -1.03183,0.55222 -1.87607,1.51949 -1.87609,2.1495 -1e-5,0.63 -1.49438,2.33781 -3.32081,3.79512 -1.82643,1.45732 -3.16266,2.9424 -2.96939,3.30019 0.19327,0.35779 -0.98803,1.78723 -2.6251,3.17654 -2.01376,1.70899 -3.40235,2.26283 -4.29311,1.71231 z"
     id="path947"
     inkscape:connector-curvature="0" /><path
     style="opacity:1;vector-effect:none;fill:#808080;fill-opacity:1;stroke:none;stroke-width:18.87199974;stroke-linecap:butt;stroke-linejoin:round;stroke-miterlimit:4;stroke-dasharray:none;stroke-dashoffset:0;stroke-opacity:1"
     d="m 137.28766,384.52319 c -2.84192,-0.43432 -3.35015,-0.74834 -2.06178,-1.2739 0.94042,-0.38361 1.47324,-1.08033 1.18405,-1.54825 -0.28919,-0.46792 0.16896,-1.11737 1.0181,-1.44322 0.84915,-0.32585 1.30638,-0.82998 1.01607,-1.12028 -0.29031,-0.29031 0.28543,-1.3411 1.27941,-2.33508 0.99399,-0.99399 1.80725,-2.59865 1.80725,-3.56591 0,-0.96726 0.77289,-2.77058 1.71753,-4.00736 0.94465,-1.23679 2.63853,-4.58241 3.76418,-7.43471 2.14532,-5.43607 9.71673,-30.56302 9.94431,-33.00185 0.0726,-0.7779 0.39616,-1.62652 0.71903,-1.88582 0.32288,-0.2593 2.11118,-3.5073 3.97401,-7.21777 4.37114,-8.70664 12.42448,-17.41654 19.14291,-20.70356 5.36493,-2.62482 4.89642,-2.58498 24.1717,-2.05534 1.43879,0.0395 2.39534,0.29254 2.12565,0.56222 -0.26968,0.26968 1.56422,1.87394 4.07533,3.56502 5.13339,3.45703 9.08706,7.80085 11.2736,12.38606 0.81079,1.70025 1.7209,3.09137 2.02245,3.09137 0.30156,0 0.6722,4.13701 0.82366,9.19337 0.19257,6.42912 -0.15398,10.3983 -1.15255,13.20073 -0.78536,2.20406 -1.22984,4.00737 -0.98775,4.00737 0.2421,0 -2.36193,2.94438 -5.78673,6.54306 -11.11055,11.67463 -25.97421,20.40489 -45.35775,26.64116 -5.08976,1.63753 -9.38054,3.28212 -9.53505,3.65465 -0.15452,0.37253 -1.10921,0.46073 -2.12155,0.196 -1.05474,-0.27583 -1.84061,-0.008 -1.84061,0.6272 0,0.60969 -0.37637,0.87591 -0.83638,0.59161 -1.25632,-0.77644 -11.45417,1.47566 -10.88106,2.40298 0.27295,0.44164 -0.86373,0.53097 -2.52595,0.19853 -2.16479,-0.43296 -2.83108,-0.29518 -2.3485,0.48565 0.37055,0.59956 0.33045,1.02989 -0.0891,0.9563 -0.41956,-0.0736 -2.46007,-0.3932 -4.53447,-0.71023 z"
     id="path949"
     inkscape:connector-curvature="0" /></svg>